{"total":1213,"page":5,"per_page":50,"total_pages":25,"filters":{"gap_sizes":["Small","Medium","Big","Huge"],"outcomes":["Bounced","Faded","Kept Falling"],"sectors":["","Communication Services","Consumer Discretionary","Consumer Staples","Energy","Financials","Health Care","Industrials","Information Technology","Materials","Real Estate","Utilities"]},"events":[{"ticker":"GIS","name":"General Mills","sector":"Consumer Staples","signal_date":"2026-06-04","gap_up_pct":2.02,"selloff_pct":2.78,"outcome_1d":2.92,"outcome_5d":5.03,"outcome_10d":null,"signal_strength":47,"status":"active","catalyst_type":"upgrade","catalyst_headline":"Yum! Brands upgraded, Chipotle downgraded: Wall Street's top analyst calls","gap_size":"Small","outcome_label":"Bounced","summary":"On June 04, 2026, General Mills jumped 2.0% because an analyst upgraded the stock. The next day it bounced back another 2.9%!","has_analysis":false},{"ticker":"GEN","name":"Gen Digital","sector":"Information Technology","signal_date":"2026-06-04","gap_up_pct":1.77,"selloff_pct":2.61,"outcome_1d":-2.49,"outcome_5d":-9.73,"outcome_10d":null,"signal_strength":22,"status":"active","catalyst_type":null,"catalyst_headline":null,"gap_size":"Small","outcome_label":"Kept Falling","summary":"On June 04, 2026, Gen Digital jumped 1.8% because of big news. But the next day it fell 2.5%.","has_analysis":false},{"ticker":"GDDY","name":"GoDaddy","sector":"Information Technology","signal_date":"2026-06-04","gap_up_pct":2.1,"selloff_pct":3.31,"outcome_1d":-4.88,"outcome_5d":-11.4,"outcome_10d":null,"signal_strength":27,"status":"active","catalyst_type":null,"catalyst_headline":null,"gap_size":"Small","outcome_label":"Kept Falling","summary":"On June 04, 2026, GoDaddy jumped 2.1% because of big news. But the next day it fell 4.9%.","has_analysis":false},{"ticker":"FISV","name":"Fiserv","sector":"Financials","signal_date":"2026-06-04","gap_up_pct":1.82,"selloff_pct":1.39,"outcome_1d":-6.24,"outcome_5d":-5.64,"outcome_10d":null,"signal_strength":26,"status":"active","catalyst_type":"positive_news","catalyst_headline":"This Small-Cap Fintech Stock Is Crushing PayPal, SoFi, Klarna In 2026: Analyst Says Rally Isn't Over Yet","gap_size":"Small","outcome_label":"Kept Falling","summary":"On June 04, 2026, Fiserv jumped 1.8% because of positive news. But the next day it fell 6.2%.","has_analysis":false},{"ticker":"FIS","name":"Fidelity National Information Services","sector":"Financials","signal_date":"2026-06-04","gap_up_pct":2.69,"selloff_pct":2.54,"outcome_1d":-4.68,"outcome_5d":-7.55,"outcome_10d":null,"signal_strength":26,"status":"active","catalyst_type":null,"catalyst_headline":null,"gap_size":"Small","outcome_label":"Kept Falling","summary":"On June 04, 2026, Fidelity National Information Services jumped 2.7% because of big news. But the next day it fell 4.7%.","has_analysis":false},{"ticker":"FICO","name":"Fair Isaac","sector":"Information Technology","signal_date":"2026-06-04","gap_up_pct":3.61,"selloff_pct":4.14,"outcome_1d":3.48,"outcome_5d":1.6,"outcome_10d":null,"signal_strength":49,"status":"active","catalyst_type":"positive_news","catalyst_headline":"Vietnam Maritime Bank Achieves 200% Faster Loan Approvals with Intelligent Decisioning from FICO","gap_size":"Medium","outcome_label":"Bounced","summary":"On June 04, 2026, Fair Isaac jumped 3.6% because of positive news. The next day it bounced back another 3.5%!","has_analysis":false},{"ticker":"FDS","name":"FactSet","sector":"Financials","signal_date":"2026-06-04","gap_up_pct":2.39,"selloff_pct":3.54,"outcome_1d":-3.39,"outcome_5d":-7.21,"outcome_10d":null,"signal_strength":55,"status":"active","catalyst_type":"earnings_beat","catalyst_headline":"Toro Lifts Outlook as Strong Demand Drives Second-Quarter Beat","gap_size":"Small","outcome_label":"Kept Falling","summary":"On June 04, 2026, FactSet jumped 2.4% because it beat earnings expectations. But the next day it fell 3.4%.","has_analysis":false},{"ticker":"FAST","name":"Fastenal","sector":"Industrials","signal_date":"2026-06-04","gap_up_pct":2.24,"selloff_pct":1.21,"outcome_1d":-2.46,"outcome_5d":-1.63,"outcome_10d":null,"signal_strength":38,"status":"active","catalyst_type":"upgrade","catalyst_headline":"Barclays Maintains Equal-Weight on Fastenal, Raises Price Target to $46","gap_size":"Small","outcome_label":"Kept Falling","summary":"On June 04, 2026, Fastenal jumped 2.2% because an analyst upgraded the stock. But the next day it fell 2.5%.","has_analysis":false},{"ticker":"EW","name":"Edwards Lifesciences","sector":"Health Care","signal_date":"2026-06-04","gap_up_pct":1.6,"selloff_pct":1.07,"outcome_1d":-1.83,"outcome_5d":-1.93,"outcome_10d":null,"signal_strength":15,"status":"active","catalyst_type":null,"catalyst_headline":null,"gap_size":"Small","outcome_label":"Kept Falling","summary":"On June 04, 2026, Edwards Lifesciences jumped 1.6% because of big news. But the next day it fell 1.8%.","has_analysis":false},{"ticker":"EPAM","name":"EPAM Systems","sector":"Information Technology","signal_date":"2026-06-04","gap_up_pct":3.54,"selloff_pct":3.85,"outcome_1d":-0.89,"outcome_5d":-4.95,"outcome_10d":null,"signal_strength":47,"status":"active","catalyst_type":"positive_news","catalyst_headline":"EPAM Systems (EPAM), Anthropic Forge Multi-Year Partnership to Accelerate Enterprise AI Transformation","gap_size":"Medium","outcome_label":"Faded","summary":"On June 04, 2026, EPAM Systems jumped 3.5% because of positive news. The next day it stayed about flat.","has_analysis":false},{"ticker":"EFX","name":"Equifax","sector":"Industrials","signal_date":"2026-06-04","gap_up_pct":2.74,"selloff_pct":4.12,"outcome_1d":-1.81,"outcome_5d":-6.67,"outcome_10d":null,"signal_strength":44,"status":"active","catalyst_type":"positive_news","catalyst_headline":"Equifax Recognition And BIK Deal Spotlight Identity Protection And Valuation Gap","gap_size":"Small","outcome_label":"Kept Falling","summary":"On June 04, 2026, Equifax jumped 2.7% because of positive news. But the next day it fell 1.8%.","has_analysis":false},{"ticker":"DXCM","name":"Dexcom","sector":"Health Care","signal_date":"2026-06-04","gap_up_pct":1.87,"selloff_pct":3.11,"outcome_1d":5.55,"outcome_5d":3.66,"outcome_10d":null,"signal_strength":25,"status":"active","catalyst_type":null,"catalyst_headline":null,"gap_size":"Small","outcome_label":"Bounced","summary":"On June 04, 2026, Dexcom jumped 1.9% because of big news. The next day it bounced back another 5.5%!","has_analysis":false},{"ticker":"DOV","name":"Dover Corporation","sector":"Industrials","signal_date":"2026-06-04","gap_up_pct":1.51,"selloff_pct":1.5,"outcome_1d":1.27,"outcome_5d":2.37,"outcome_10d":null,"signal_strength":15,"status":"active","catalyst_type":null,"catalyst_headline":null,"gap_size":"Small","outcome_label":"Bounced","summary":"On June 04, 2026, Dover Corporation jumped 1.5% because of big news. The next day it bounced back another 1.3%!","has_analysis":false},{"ticker":"DLTR","name":"Dollar Tree","sector":"Consumer Staples","signal_date":"2026-06-04","gap_up_pct":2.1,"selloff_pct":5.17,"outcome_1d":-1.45,"outcome_5d":5.14,"outcome_10d":null,"signal_strength":60,"status":"active","catalyst_type":"earnings_beat","catalyst_headline":"Five Below's Beat-And-Raise Quarter May End Its Growth Trajectory","gap_size":"Small","outcome_label":"Kept Falling","summary":"On June 04, 2026, Dollar Tree jumped 2.1% because it beat earnings expectations. But the next day it fell 1.4%.","has_analysis":false},{"ticker":"DHI","name":"D. R. Horton","sector":"Consumer Discretionary","signal_date":"2026-06-04","gap_up_pct":1.54,"selloff_pct":1.05,"outcome_1d":-1.45,"outcome_5d":5.48,"outcome_10d":null,"signal_strength":13,"status":"active","catalyst_type":null,"catalyst_headline":null,"gap_size":"Small","outcome_label":"Kept Falling","summary":"On June 04, 2026, D. R. Horton jumped 1.5% because of big news. But the next day it fell 1.4%.","has_analysis":false},{"ticker":"DG","name":"Dollar General","sector":"Consumer Staples","signal_date":"2026-06-04","gap_up_pct":1.57,"selloff_pct":3.02,"outcome_1d":3.19,"outcome_5d":10.45,"outcome_10d":null,"signal_strength":48,"status":"active","catalyst_type":"earnings_beat","catalyst_headline":"Five Below's Beat-And-Raise Quarter May End Its Growth Trajectory","gap_size":"Small","outcome_label":"Bounced","summary":"On June 04, 2026, Dollar General jumped 1.6% because it beat earnings expectations. The next day it bounced back another 3.2%!","has_analysis":false},{"ticker":"DAL","name":"Delta Air Lines","sector":"Industrials","signal_date":"2026-06-04","gap_up_pct":1.9,"selloff_pct":1.16,"outcome_1d":-1.64,"outcome_5d":2.92,"outcome_10d":null,"signal_strength":25,"status":"active","catalyst_type":"positive_news","catalyst_headline":"The Surprising Reason Airline Stocks Are Soaring","gap_size":"Small","outcome_label":"Kept Falling","summary":"On June 04, 2026, Delta Air Lines jumped 1.9% because of positive news. But the next day it fell 1.6%.","has_analysis":false},{"ticker":"CTSH","name":"Cognizant","sector":"Information Technology","signal_date":"2026-06-04","gap_up_pct":2.8,"selloff_pct":3.89,"outcome_1d":-0.77,"outcome_5d":-4.16,"outcome_10d":null,"signal_strength":44,"status":"active","catalyst_type":"positive_news","catalyst_headline":"Cognizant announces ServiceNow partnership to accelerate scalable, operationalized AI governance at enterprise scale","gap_size":"Small","outcome_label":"Faded","summary":"On June 04, 2026, Cognizant jumped 2.8% because of positive news. The next day it stayed about flat.","has_analysis":false},{"ticker":"CSX","name":"CSX Corporation","sector":"Industrials","signal_date":"2026-06-04","gap_up_pct":1.74,"selloff_pct":2.16,"outcome_1d":1.9,"outcome_5d":2.46,"outcome_10d":null,"signal_strength":40,"status":"active","catalyst_type":"upgrade","catalyst_headline":"Is CSX Corporation Stock Outperforming the Dow?","gap_size":"Small","outcome_label":"Bounced","summary":"On June 04, 2026, CSX Corporation jumped 1.7% because an analyst upgraded the stock. The next day it bounced back another 1.9%!","has_analysis":false},{"ticker":"CSGP","name":"CoStar Group","sector":"Real Estate","signal_date":"2026-06-04","gap_up_pct":3.77,"selloff_pct":3.33,"outcome_1d":-0.8,"outcome_5d":-3.0,"outcome_10d":null,"signal_strength":56,"status":"active","catalyst_type":"upgrade","catalyst_headline":"Broadcom downgraded, UnitedHealth upgraded: Wall Street's top analyst calls","gap_size":"Medium","outcome_label":"Faded","summary":"On June 04, 2026, CoStar Group jumped 3.8% because an analyst upgraded the stock. The next day it stayed about flat.","has_analysis":false},{"ticker":"CRM","name":"Salesforce","sector":"Information Technology","signal_date":"2026-06-04","gap_up_pct":3.78,"selloff_pct":4.72,"outcome_1d":-3.28,"outcome_5d":-11.81,"outcome_10d":null,"signal_strength":67,"status":"active","catalyst_type":"earnings_beat","catalyst_headline":"$960 Billion: Anthropic Beats OpenAI to the IPO Filing in a Race That Could Reshape AI Investing","gap_size":"Medium","outcome_label":"Kept Falling","summary":"On June 04, 2026, Salesforce jumped 3.8% because it beat earnings expectations. But the next day it fell 3.3%.","has_analysis":false},{"ticker":"CPRT","name":"Copart","sector":"Industrials","signal_date":"2026-06-04","gap_up_pct":1.78,"selloff_pct":3.12,"outcome_1d":0.29,"outcome_5d":0.94,"outcome_10d":null,"signal_strength":27,"status":"active","catalyst_type":null,"catalyst_headline":null,"gap_size":"Small","outcome_label":"Faded","summary":"On June 04, 2026, Copart jumped 1.8% because of big news. The next day it stayed about flat.","has_analysis":false},{"ticker":"CPAY","name":"Corpay","sector":"Financials","signal_date":"2026-06-04","gap_up_pct":1.54,"selloff_pct":1.16,"outcome_1d":-2.29,"outcome_5d":-1.77,"outcome_10d":null,"signal_strength":39,"status":"active","catalyst_type":"earnings_beat","catalyst_headline":"A Look At Corpay (CPAY) Valuation After Its Q1 Beat And Cautious Full Year Guidance","gap_size":"Small","outcome_label":"Kept Falling","summary":"On June 04, 2026, Corpay jumped 1.5% because it beat earnings expectations. But the next day it fell 2.3%.","has_analysis":false},{"ticker":"COST","name":"Costco","sector":"Consumer Staples","signal_date":"2026-06-04","gap_up_pct":2.61,"selloff_pct":1.78,"outcome_1d":0.25,"outcome_5d":0.34,"outcome_10d":null,"signal_strength":50,"status":"active","catalyst_type":"earnings_beat","catalyst_headline":"Costco Beats Revenue Estimates as Record Gas Volumes Drive Member Traffic. AI Could Power the Next Leg Higher for COST Stock.","gap_size":"Small","outcome_label":"Faded","summary":"On June 04, 2026, Costco jumped 2.6% because it beat earnings expectations. The next day it stayed about flat.","has_analysis":false},{"ticker":"CNC","name":"Centene Corporation","sector":"Health Care","signal_date":"2026-06-04","gap_up_pct":2.37,"selloff_pct":1.26,"outcome_1d":3.72,"outcome_5d":1.34,"outcome_10d":null,"signal_strength":38,"status":"active","catalyst_type":"upgrade","catalyst_headline":"B of A Securities Maintains Buy on Centene, Raises Price Target to $74","gap_size":"Small","outcome_label":"Bounced","summary":"On June 04, 2026, Centene Corporation jumped 2.4% because an analyst upgraded the stock. The next day it bounced back another 3.7%!","has_analysis":false},{"ticker":"CMCSA","name":"Comcast","sector":"Communication Services","signal_date":"2026-06-04","gap_up_pct":1.87,"selloff_pct":3.79,"outcome_1d":1.84,"outcome_5d":2.74,"outcome_10d":null,"signal_strength":40,"status":"active","catalyst_type":"positive_news","catalyst_headline":"Wall Street Lunch: Quantinuum Soars 12% On Nasdaq Debut Following $1.7B IPO","gap_size":"Small","outcome_label":"Bounced","summary":"On June 04, 2026, Comcast jumped 1.9% because of positive news. The next day it bounced back another 1.8%!","has_analysis":false},{"ticker":"CLX","name":"Clorox","sector":"Consumer Staples","signal_date":"2026-06-04","gap_up_pct":2.32,"selloff_pct":1.94,"outcome_1d":6.17,"outcome_5d":9.67,"outcome_10d":null,"signal_strength":24,"status":"active","catalyst_type":null,"catalyst_headline":null,"gap_size":"Small","outcome_label":"Bounced","summary":"On June 04, 2026, Clorox jumped 2.3% because of big news. The next day it bounced back another 6.2%!","has_analysis":false},{"ticker":"CL","name":"Colgate-Palmolive","sector":"Consumer Staples","signal_date":"2026-06-04","gap_up_pct":1.91,"selloff_pct":2.35,"outcome_1d":1.14,"outcome_5d":5.04,"outcome_10d":null,"signal_strength":23,"status":"active","catalyst_type":null,"catalyst_headline":null,"gap_size":"Small","outcome_label":"Bounced","summary":"On June 04, 2026, Colgate-Palmolive jumped 1.9% because of big news. The next day it bounced back another 1.1%!","has_analysis":false},{"ticker":"CI","name":"Cigna","sector":"Health Care","signal_date":"2026-06-04","gap_up_pct":2.32,"selloff_pct":1.21,"outcome_1d":3.18,"outcome_5d":5.04,"outcome_10d":null,"signal_strength":28,"status":"active","catalyst_type":"positive_news","catalyst_headline":"Humana Jumps 6%, UnitedHealth Climbs 5%, Cigna Rises 4% as Analysts Cheer Softer Medical Cost Trends","gap_size":"Small","outcome_label":"Bounced","summary":"On June 04, 2026, Cigna jumped 2.3% because of positive news. The next day it bounced back another 3.2%!","has_analysis":false},{"ticker":"CHTR","name":"Charter Communications","sector":"Communication Services","signal_date":"2026-06-04","gap_up_pct":1.98,"selloff_pct":2.93,"outcome_1d":2.44,"outcome_5d":7.82,"outcome_10d":null,"signal_strength":25,"status":"active","catalyst_type":null,"catalyst_headline":null,"gap_size":"Small","outcome_label":"Bounced","summary":"On June 04, 2026, Charter Communications jumped 2.0% because of big news. The next day it bounced back another 2.4%!","has_analysis":false},{"ticker":"CHD","name":"Church & Dwight","sector":"Consumer Staples","signal_date":"2026-06-04","gap_up_pct":1.91,"selloff_pct":1.24,"outcome_1d":1.31,"outcome_5d":3.14,"outcome_10d":null,"signal_strength":17,"status":"active","catalyst_type":null,"catalyst_headline":null,"gap_size":"Small","outcome_label":"Bounced","summary":"On June 04, 2026, Church & Dwight jumped 1.9% because of big news. The next day it bounced back another 1.3%!","has_analysis":false},{"ticker":"CDW","name":"CDW Corporation","sector":"Information Technology","signal_date":"2026-06-04","gap_up_pct":1.68,"selloff_pct":0.94,"outcome_1d":-3.33,"outcome_5d":-7.4,"outcome_10d":null,"signal_strength":13,"status":"active","catalyst_type":null,"catalyst_headline":null,"gap_size":"Small","outcome_label":"Kept Falling","summary":"On June 04, 2026, CDW Corporation jumped 1.7% because of big news. But the next day it fell 3.3%.","has_analysis":false},{"ticker":"CCEP","name":"Coca-Cola Europacific Partners","sector":"","signal_date":"2026-06-04","gap_up_pct":1.84,"selloff_pct":2.93,"outcome_1d":3.51,"outcome_5d":6.16,"outcome_10d":null,"signal_strength":32,"status":"active","catalyst_type":null,"catalyst_headline":null,"gap_size":"Small","outcome_label":"Bounced","summary":"On June 04, 2026, Coca-Cola Europacific Partners jumped 1.8% because of big news. The next day it bounced back another 3.5%!","has_analysis":false},{"ticker":"CAG","name":"Conagra Brands","sector":"Consumer Staples","signal_date":"2026-06-04","gap_up_pct":2.15,"selloff_pct":2.46,"outcome_1d":3.71,"outcome_5d":6.07,"outcome_10d":null,"signal_strength":43,"status":"active","catalyst_type":"upgrade","catalyst_headline":"Yum! Brands upgraded, Chipotle downgraded: Wall Street's top analyst calls","gap_size":"Small","outcome_label":"Bounced","summary":"On June 04, 2026, Conagra Brands jumped 2.1% because an analyst upgraded the stock. The next day it bounced back another 3.7%!","has_analysis":false},{"ticker":"BSX","name":"Boston Scientific","sector":"Health Care","signal_date":"2026-06-04","gap_up_pct":1.82,"selloff_pct":1.25,"outcome_1d":-0.31,"outcome_5d":-3.44,"outcome_10d":null,"signal_strength":15,"status":"active","catalyst_type":null,"catalyst_headline":null,"gap_size":"Small","outcome_label":"Faded","summary":"On June 04, 2026, Boston Scientific jumped 1.8% because of big news. The next day it stayed about flat.","has_analysis":false},{"ticker":"BRO","name":"Brown & Brown","sector":"Financials","signal_date":"2026-06-04","gap_up_pct":2.47,"selloff_pct":1.12,"outcome_1d":1.08,"outcome_5d":4.48,"outcome_10d":null,"signal_strength":28,"status":"active","catalyst_type":"positive_news","catalyst_headline":"Is Brown & Brown’s Q1 Surge And Accession Integration Progress Altering The Investment Case For BRO?","gap_size":"Small","outcome_label":"Bounced","summary":"On June 04, 2026, Brown & Brown jumped 2.5% because of positive news. The next day it bounced back another 1.1%!","has_analysis":false},{"ticker":"BR","name":"Broadridge Financial Solutions","sector":"Industrials","signal_date":"2026-06-04","gap_up_pct":2.26,"selloff_pct":3.07,"outcome_1d":-3.32,"outcome_5d":-6.0,"outcome_10d":null,"signal_strength":27,"status":"active","catalyst_type":null,"catalyst_headline":null,"gap_size":"Small","outcome_label":"Kept Falling","summary":"On June 04, 2026, Broadridge Financial Solutions jumped 2.3% because of big news. But the next day it fell 3.3%.","has_analysis":false},{"ticker":"BKNG","name":"Booking Holdings","sector":"Consumer Discretionary","signal_date":"2026-06-04","gap_up_pct":2.26,"selloff_pct":2.18,"outcome_1d":-3.1,"outcome_5d":-2.33,"outcome_10d":null,"signal_strength":23,"status":"active","catalyst_type":null,"catalyst_headline":null,"gap_size":"Small","outcome_label":"Kept Falling","summary":"On June 04, 2026, Booking Holdings jumped 2.3% because of big news. But the next day it fell 3.1%.","has_analysis":false},{"ticker":"BF-B","name":"Brown–Forman","sector":"Consumer Staples","signal_date":"2026-06-04","gap_up_pct":2.3,"selloff_pct":2.71,"outcome_1d":3.85,"outcome_5d":4.79,"outcome_10d":null,"signal_strength":26,"status":"active","catalyst_type":null,"catalyst_headline":null,"gap_size":"Small","outcome_label":"Bounced","summary":"On June 04, 2026, Brown–Forman jumped 2.3% because of big news. The next day it bounced back another 3.9%!","has_analysis":false},{"ticker":"BDX","name":"Becton Dickinson","sector":"Health Care","signal_date":"2026-06-04","gap_up_pct":2.25,"selloff_pct":1.39,"outcome_1d":0.29,"outcome_5d":-1.48,"outcome_10d":null,"signal_strength":18,"status":"active","catalyst_type":null,"catalyst_headline":null,"gap_size":"Small","outcome_label":"Faded","summary":"On June 04, 2026, Becton Dickinson jumped 2.2% because of big news. The next day it stayed about flat.","has_analysis":false},{"ticker":"BALL","name":"Ball Corporation","sector":"Materials","signal_date":"2026-06-04","gap_up_pct":1.7,"selloff_pct":2.44,"outcome_1d":-0.15,"outcome_5d":6.91,"outcome_10d":null,"signal_strength":21,"status":"active","catalyst_type":null,"catalyst_headline":null,"gap_size":"Small","outcome_label":"Faded","summary":"On June 04, 2026, Ball Corporation jumped 1.7% because of big news. The next day it stayed about flat.","has_analysis":false},{"ticker":"AON","name":"Aon plc","sector":"Financials","signal_date":"2026-06-04","gap_up_pct":1.76,"selloff_pct":1.73,"outcome_1d":1.12,"outcome_5d":4.01,"outcome_10d":null,"signal_strength":17,"status":"active","catalyst_type":null,"catalyst_headline":null,"gap_size":"Small","outcome_label":"Bounced","summary":"On June 04, 2026, Aon plc jumped 1.8% because of big news. The next day it bounced back another 1.1%!","has_analysis":false},{"ticker":"AMGN","name":"Amgen","sector":"Health Care","signal_date":"2026-06-04","gap_up_pct":2.26,"selloff_pct":1.03,"outcome_1d":0.04,"outcome_5d":2.45,"outcome_10d":null,"signal_strength":22,"status":"active","catalyst_type":null,"catalyst_headline":null,"gap_size":"Small","outcome_label":"Faded","summary":"On June 04, 2026, Amgen jumped 2.3% because of big news. The next day it stayed about flat.","has_analysis":false},{"ticker":"ALNY","name":"Alnylam Pharmaceuticals","sector":"","signal_date":"2026-06-04","gap_up_pct":1.59,"selloff_pct":2.22,"outcome_1d":-3.78,"outcome_5d":-4.69,"outcome_10d":null,"signal_strength":29,"status":"active","catalyst_type":"positive_news","catalyst_headline":"Alnylam Eyes Faster Drug Discovery With AI Partnership Worth Up To $2 Billion","gap_size":"Small","outcome_label":"Kept Falling","summary":"On June 04, 2026, Alnylam Pharmaceuticals jumped 1.6% because of positive news. But the next day it fell 3.8%.","has_analysis":false},{"ticker":"ADSK","name":"Autodesk","sector":"Information Technology","signal_date":"2026-06-04","gap_up_pct":3.0,"selloff_pct":1.77,"outcome_1d":-3.68,"outcome_5d":-12.01,"outcome_10d":null,"signal_strength":40,"status":"active","catalyst_type":"guidance","catalyst_headline":"Autodesk (ADSK) Valuation Check As AWS Cloud Deal And Raised Guidance Draw Investor Attention","gap_size":"Medium","outcome_label":"Kept Falling","summary":"On June 04, 2026, Autodesk jumped 3.0% because the company raised its outlook. But the next day it fell 3.7%.","has_analysis":false},{"ticker":"ADP","name":"Automatic Data Processing","sector":"Industrials","signal_date":"2026-06-04","gap_up_pct":2.9,"selloff_pct":2.45,"outcome_1d":-0.96,"outcome_5d":-2.4,"outcome_10d":null,"signal_strength":37,"status":"active","catalyst_type":"positive_news","catalyst_headline":"Wall Street Snaps Record Rally Amid Re-Escalation in Middle East Conflict","gap_size":"Small","outcome_label":"Faded","summary":"On June 04, 2026, Automatic Data Processing jumped 2.9% because of positive news. The next day it stayed about flat.","has_analysis":false},{"ticker":"ADBE","name":"Adobe Inc.","sector":"Information Technology","signal_date":"2026-06-04","gap_up_pct":2.65,"selloff_pct":2.83,"outcome_1d":-5.2,"outcome_5d":-15.33,"outcome_10d":null,"signal_strength":37,"status":"active","catalyst_type":"positive_news","catalyst_headline":"Pinterest and IBM Just Struck Massive AI Deals. Amazon and Google Are the Big Winners.","gap_size":"Small","outcome_label":"Kept Falling","summary":"On June 04, 2026, Adobe Inc. jumped 2.6% because of positive news. But the next day it fell 5.2%.","has_analysis":false},{"ticker":"ACN","name":"Accenture","sector":"Information Technology","signal_date":"2026-06-04","gap_up_pct":3.52,"selloff_pct":3.32,"outcome_1d":-2.48,"outcome_5d":-6.34,"outcome_10d":null,"signal_strength":34,"status":"active","catalyst_type":null,"catalyst_headline":null,"gap_size":"Medium","outcome_label":"Kept Falling","summary":"On June 04, 2026, Accenture jumped 3.5% because of big news. But the next day it fell 2.5%.","has_analysis":false},{"ticker":"ACGL","name":"Arch Capital Group","sector":"Financials","signal_date":"2026-06-04","gap_up_pct":1.5,"selloff_pct":2.26,"outcome_1d":1.44,"outcome_5d":3.16,"outcome_10d":null,"signal_strength":19,"status":"active","catalyst_type":null,"catalyst_headline":null,"gap_size":"Small","outcome_label":"Bounced","summary":"On June 04, 2026, Arch Capital Group jumped 1.5% because of big news. The next day it bounced back another 1.4%!","has_analysis":false},{"ticker":"ABNB","name":"Airbnb","sector":"Consumer Discretionary","signal_date":"2026-06-04","gap_up_pct":1.81,"selloff_pct":2.56,"outcome_1d":0.53,"outcome_5d":-2.13,"outcome_10d":null,"signal_strength":22,"status":"active","catalyst_type":null,"catalyst_headline":null,"gap_size":"Small","outcome_label":"Faded","summary":"On June 04, 2026, Airbnb jumped 1.8% because of big news. The next day it stayed about flat.","has_analysis":false}]}