{"total":575,"page":6,"per_page":50,"total_pages":12,"filters":{"gap_sizes":["Small","Medium","Big","Huge"],"outcomes":["Bounced","Faded","Kept Falling"],"sectors":["","Communication Services","Consumer Discretionary","Consumer Staples","Energy","Financials","Health Care","Industrials","Information Technology","Materials","Real Estate","Utilities"]},"events":[{"ticker":"VRSK","name":"Verisk Analytics","sector":"Industrials","signal_date":"2026-04-28","gap_up_pct":1.94,"selloff_pct":2.08,"outcome_1d":4.43,"outcome_5d":2.15,"outcome_10d":null,"signal_strength":33,"status":"active","catalyst_type":null,"catalyst_headline":null,"gap_size":"Small","outcome_label":"Bounced","summary":"On April 28, 2026, Verisk Analytics jumped 1.9% because of big news. The next day it bounced back another 4.4%!","has_analysis":false},{"ticker":"UHS","name":"Universal Health Services","sector":"Health Care","signal_date":"2026-04-28","gap_up_pct":2.51,"selloff_pct":11.85,"outcome_1d":3.53,"outcome_5d":1.76,"outcome_10d":null,"signal_strength":80,"status":"active","catalyst_type":"earnings_beat","catalyst_headline":"UHS' Q1 Earnings Beat on Strong Behavioral Health Care Admissions","gap_size":"Small","outcome_label":"Bounced","summary":"On April 28, 2026, Universal Health Services jumped 2.5% because it beat earnings expectations. The next day it bounced back another 3.5%!","has_analysis":false},{"ticker":"TYL","name":"Tyler Technologies","sector":"Information Technology","signal_date":"2026-04-28","gap_up_pct":1.83,"selloff_pct":2.65,"outcome_1d":0.2,"outcome_5d":-3.71,"outcome_10d":null,"signal_strength":49,"status":"active","catalyst_type":"upgrade","catalyst_headline":"Citizens Reiterates Market Outperform on Tyler Technologies, Maintains $500 Price Target","gap_size":"Small","outcome_label":"Faded","summary":"On April 28, 2026, Tyler Technologies jumped 1.8% because an analyst upgraded the stock. The next day it stayed about flat.","has_analysis":false},{"ticker":"TRI","name":"Thomson Reuters","sector":"","signal_date":"2026-04-28","gap_up_pct":3.26,"selloff_pct":1.13,"outcome_1d":6.45,"outcome_5d":4.56,"outcome_10d":null,"signal_strength":22,"status":"active","catalyst_type":null,"catalyst_headline":null,"gap_size":"Medium","outcome_label":"Bounced","summary":"On April 28, 2026, Thomson Reuters jumped 3.3% because of big news. The next day it bounced back another 6.5%!","has_analysis":false},{"ticker":"TAP","name":"Molson Coors Beverage Company","sector":"Consumer Staples","signal_date":"2026-04-28","gap_up_pct":1.78,"selloff_pct":2.16,"outcome_1d":0.42,"outcome_5d":-0.87,"outcome_10d":null,"signal_strength":53,"status":"active","catalyst_type":"earnings_beat","catalyst_headline":"Church & Dwight Readies for Q1 Earnings: Is a Beat Likely for CHD?","gap_size":"Small","outcome_label":"Faded","summary":"On April 28, 2026, Molson Coors Beverage Company jumped 1.8% because it beat earnings expectations. The next day it stayed about flat.","has_analysis":false},{"ticker":"SHW","name":"Sherwin-Williams","sector":"Materials","signal_date":"2026-04-28","gap_up_pct":1.76,"selloff_pct":5.75,"outcome_1d":-0.82,"outcome_5d":-3.64,"outcome_10d":null,"signal_strength":62,"status":"active","catalyst_type":"earnings_beat","catalyst_headline":"Sherwin-Williams Beat Earnings Forecasts. Why the Stock Is Sliding.","gap_size":"Small","outcome_label":"Faded","summary":"On April 28, 2026, Sherwin-Williams jumped 1.8% because it beat earnings expectations. The next day it stayed about flat.","has_analysis":false},{"ticker":"RSG","name":"Republic Services","sector":"Industrials","signal_date":"2026-04-28","gap_up_pct":1.52,"selloff_pct":0.69,"outcome_1d":0.51,"outcome_5d":-2.05,"outcome_10d":null,"signal_strength":11,"status":"active","catalyst_type":null,"catalyst_headline":null,"gap_size":"Small","outcome_label":"Faded","summary":"On April 28, 2026, Republic Services jumped 1.5% because of big news. The next day it stayed about flat.","has_analysis":false},{"ticker":"PSX","name":"Phillips 66","sector":"Energy","signal_date":"2026-04-28","gap_up_pct":1.62,"selloff_pct":1.24,"outcome_1d":8.49,"outcome_5d":9.16,"outcome_10d":null,"signal_strength":28,"status":"active","catalyst_type":"positive_news","catalyst_headline":"Phillips 66 Limited completes acquisition of Lindsey Oil Refinery assets","gap_size":"Small","outcome_label":"Bounced","summary":"On April 28, 2026, Phillips 66 jumped 1.6% because of positive news. The next day it bounced back another 8.5%!","has_analysis":false},{"ticker":"PSA","name":"Public Storage","sector":"Real Estate","signal_date":"2026-04-28","gap_up_pct":1.61,"selloff_pct":4.53,"outcome_1d":1.79,"outcome_5d":0.57,"outcome_10d":null,"signal_strength":59,"status":"active","catalyst_type":"earnings_beat","catalyst_headline":"Public Storage's Q1 FFO Beats Estimates on Non-Same-Store Growth","gap_size":"Small","outcome_label":"Bounced","summary":"On April 28, 2026, Public Storage jumped 1.6% because it beat earnings expectations. The next day it bounced back another 1.8%!","has_analysis":false},{"ticker":"PFE","name":"Pfizer","sector":"Health Care","signal_date":"2026-04-28","gap_up_pct":2.76,"selloff_pct":3.99,"outcome_1d":0.83,"outcome_5d":-0.11,"outcome_10d":null,"signal_strength":44,"status":"active","catalyst_type":"positive_news","catalyst_headline":"Pfizer secures deals to keep heart drug free of generic rivals until 2031","gap_size":"Small","outcome_label":"Faded","summary":"On April 28, 2026, Pfizer jumped 2.8% because of positive news. The next day it stayed about flat.","has_analysis":false},{"ticker":"PEP","name":"PepsiCo","sector":"Consumer Staples","signal_date":"2026-04-28","gap_up_pct":1.75,"selloff_pct":1.15,"outcome_1d":1.41,"outcome_5d":-0.8,"outcome_10d":null,"signal_strength":40,"status":"active","catalyst_type":"earnings_beat","catalyst_headline":"Coca-Cola Pops 6% on Q1 Beat: Are KO, PEP, and KDP the Best Defensive Plays Right Now?","gap_size":"Small","outcome_label":"Bounced","summary":"On April 28, 2026, PepsiCo jumped 1.8% because it beat earnings expectations. The next day it bounced back another 1.4%!","has_analysis":false},{"ticker":"PAYX","name":"Paychex","sector":"Industrials","signal_date":"2026-04-28","gap_up_pct":1.6,"selloff_pct":1.41,"outcome_1d":1.8,"outcome_5d":2.04,"outcome_10d":null,"signal_strength":16,"status":"active","catalyst_type":null,"catalyst_headline":null,"gap_size":"Small","outcome_label":"Bounced","summary":"On April 28, 2026, Paychex jumped 1.6% because of big news. The next day it bounced back another 1.8%!","has_analysis":false},{"ticker":"PAYC","name":"Paycom","sector":"Industrials","signal_date":"2026-04-28","gap_up_pct":1.61,"selloff_pct":2.18,"outcome_1d":1.55,"outcome_5d":5.5,"outcome_10d":null,"signal_strength":19,"status":"active","catalyst_type":null,"catalyst_headline":null,"gap_size":"Small","outcome_label":"Bounced","summary":"On April 28, 2026, Paycom jumped 1.6% because of big news. The next day it bounced back another 1.6%!","has_analysis":false},{"ticker":"ODFL","name":"Old Dominion","sector":"Industrials","signal_date":"2026-04-28","gap_up_pct":1.59,"selloff_pct":1.01,"outcome_1d":-4.21,"outcome_5d":-11.58,"outcome_10d":null,"signal_strength":54,"status":"active","catalyst_type":"upgrade","catalyst_headline":"This Old Dominion Freight Line Analyst Is No Longer Bearish; Here Are Top 3 Upgrades For Tuesday","gap_size":"Small","outcome_label":"Kept Falling","summary":"On April 28, 2026, Old Dominion jumped 1.6% because an analyst upgraded the stock. But the next day it fell 4.2%.","has_analysis":false},{"ticker":"NUE","name":"Nucor","sector":"Materials","signal_date":"2026-04-28","gap_up_pct":2.4,"selloff_pct":1.04,"outcome_1d":0.08,"outcome_5d":3.09,"outcome_10d":null,"signal_strength":43,"status":"active","catalyst_type":"earnings_beat","catalyst_headline":"Nucor’s Q1 beat Wall Street estimates on higher pricing, steel demand","gap_size":"Small","outcome_label":"Faded","summary":"On April 28, 2026, Nucor jumped 2.4% because it beat earnings expectations. The next day it stayed about flat.","has_analysis":false},{"ticker":"MKC","name":"McCormick & Company","sector":"Consumer Staples","signal_date":"2026-04-28","gap_up_pct":1.63,"selloff_pct":1.29,"outcome_1d":-0.59,"outcome_5d":-5.18,"outcome_10d":null,"signal_strength":15,"status":"active","catalyst_type":null,"catalyst_headline":null,"gap_size":"Small","outcome_label":"Faded","summary":"On April 28, 2026, McCormick & Company jumped 1.6% because of big news. The next day it stayed about flat.","has_analysis":false},{"ticker":"LYB","name":"LyondellBasell","sector":"Materials","signal_date":"2026-04-28","gap_up_pct":2.0,"selloff_pct":1.79,"outcome_1d":4.36,"outcome_5d":8.79,"outcome_10d":null,"signal_strength":20,"status":"active","catalyst_type":null,"catalyst_headline":null,"gap_size":"Small","outcome_label":"Bounced","summary":"On April 28, 2026, LyondellBasell jumped 2.0% because of big news. The next day it bounced back another 4.4%!","has_analysis":false},{"ticker":"KO","name":"Coca-Cola Company (The)","sector":"Consumer Staples","signal_date":"2026-04-28","gap_up_pct":5.41,"selloff_pct":2.45,"outcome_1d":0.52,"outcome_5d":0.17,"outcome_10d":null,"signal_strength":41,"status":"active","catalyst_type":null,"catalyst_headline":null,"gap_size":"Big","outcome_label":"Faded","summary":"On April 28, 2026, Coca-Cola Company (The) jumped 5.4% because of big news. The next day it stayed about flat.","has_analysis":false},{"ticker":"KDP","name":"Keurig Dr Pepper","sector":"Consumer Staples","signal_date":"2026-04-28","gap_up_pct":1.74,"selloff_pct":1.71,"outcome_1d":2.12,"outcome_5d":0.45,"outcome_10d":null,"signal_strength":45,"status":"active","catalyst_type":"earnings_beat","catalyst_headline":"Coca-Cola Pops 6% on Q1 Beat: Are KO, PEP, and KDP the Best Defensive Plays Right Now?","gap_size":"Small","outcome_label":"Bounced","summary":"On April 28, 2026, Keurig Dr Pepper jumped 1.7% because it beat earnings expectations. The next day it bounced back another 2.1%!","has_analysis":false},{"ticker":"HII","name":"Huntington Ingalls Industries","sector":"Industrials","signal_date":"2026-04-28","gap_up_pct":1.89,"selloff_pct":1.87,"outcome_1d":0.8,"outcome_5d":-9.76,"outcome_10d":null,"signal_strength":46,"status":"active","catalyst_type":"earnings_beat","catalyst_headline":"Huntington Ingalls (HII) Expected to Beat Earnings Estimates: What to Know Ahead of Q1 Release","gap_size":"Small","outcome_label":"Faded","summary":"On April 28, 2026, Huntington Ingalls Industries jumped 1.9% because it beat earnings expectations. The next day it stayed about flat.","has_analysis":false},{"ticker":"GIS","name":"General Mills","sector":"Consumer Staples","signal_date":"2026-04-28","gap_up_pct":1.73,"selloff_pct":1.97,"outcome_1d":1.61,"outcome_5d":-0.58,"outcome_10d":null,"signal_strength":19,"status":"active","catalyst_type":null,"catalyst_headline":null,"gap_size":"Small","outcome_label":"Bounced","summary":"On April 28, 2026, General Mills jumped 1.7% because of big news. The next day it bounced back another 1.6%!","has_analysis":false},{"ticker":"GILD","name":"Gilead Sciences","sector":"Health Care","signal_date":"2026-04-28","gap_up_pct":2.02,"selloff_pct":0.93,"outcome_1d":1.22,"outcome_5d":3.26,"outcome_10d":null,"signal_strength":40,"status":"active","catalyst_type":"earnings_beat","catalyst_headline":"Amgen to Report Q1 Earnings: Can It Keep the Beat Streak Alive?","gap_size":"Small","outcome_label":"Bounced","summary":"On April 28, 2026, Gilead Sciences jumped 2.0% because it beat earnings expectations. The next day it bounced back another 1.2%!","has_analysis":false},{"ticker":"ERIE","name":"Erie Indemnity","sector":"Financials","signal_date":"2026-04-28","gap_up_pct":1.72,"selloff_pct":2.63,"outcome_1d":-4.79,"outcome_5d":-3.78,"outcome_10d":null,"signal_strength":22,"status":"active","catalyst_type":null,"catalyst_headline":null,"gap_size":"Small","outcome_label":"Kept Falling","summary":"On April 28, 2026, Erie Indemnity jumped 1.7% because of big news. But the next day it fell 4.8%.","has_analysis":false},{"ticker":"EPAM","name":"EPAM Systems","sector":"Information Technology","signal_date":"2026-04-28","gap_up_pct":1.72,"selloff_pct":4.7,"outcome_1d":-0.32,"outcome_5d":-3.95,"outcome_10d":null,"signal_strength":35,"status":"active","catalyst_type":null,"catalyst_headline":null,"gap_size":"Small","outcome_label":"Faded","summary":"On April 28, 2026, EPAM Systems jumped 1.7% because of big news. The next day it stayed about flat.","has_analysis":false},{"ticker":"DOW","name":"Dow Inc.","sector":"Materials","signal_date":"2026-04-28","gap_up_pct":2.1,"selloff_pct":2.79,"outcome_1d":6.52,"outcome_5d":7.34,"outcome_10d":null,"signal_strength":44,"status":"active","catalyst_type":"upgrade","catalyst_headline":"RBC Capital Maintains Outperform on Dow, Raises Price Target to $51","gap_size":"Small","outcome_label":"Bounced","summary":"On April 28, 2026, Dow Inc. jumped 2.1% because an analyst upgraded the stock. The next day it bounced back another 6.5%!","has_analysis":false},{"ticker":"CTSH","name":"Cognizant","sector":"Information Technology","signal_date":"2026-04-28","gap_up_pct":1.83,"selloff_pct":1.97,"outcome_1d":-4.03,"outcome_5d":-5.9,"outcome_10d":null,"signal_strength":45,"status":"active","catalyst_type":"upgrade","catalyst_headline":"JP Morgan Maintains Overweight on Cognizant Tech Solns, Lowers Price Target to $74","gap_size":"Small","outcome_label":"Kept Falling","summary":"On April 28, 2026, Cognizant jumped 1.8% because an analyst upgraded the stock. But the next day it fell 4.0%.","has_analysis":false},{"ticker":"CSGP","name":"CoStar Group","sector":"Real Estate","signal_date":"2026-04-28","gap_up_pct":1.68,"selloff_pct":3.82,"outcome_1d":-3.75,"outcome_5d":-2.95,"outcome_10d":null,"signal_strength":48,"status":"active","catalyst_type":null,"catalyst_headline":null,"gap_size":"Small","outcome_label":"Kept Falling","summary":"On April 28, 2026, CoStar Group jumped 1.7% because of big news. But the next day it fell 3.8%.","has_analysis":false},{"ticker":"CME","name":"CME Group","sector":"Financials","signal_date":"2026-04-28","gap_up_pct":1.54,"selloff_pct":0.86,"outcome_1d":1.16,"outcome_5d":0.8,"outcome_10d":null,"signal_strength":22,"status":"active","catalyst_type":"positive_news","catalyst_headline":"CME : Wheat futures surged 28 cents to lead Tuesday's grain rally.","gap_size":"Small","outcome_label":"Bounced","summary":"On April 28, 2026, CME Group jumped 1.5% because of positive news. The next day it bounced back another 1.2%!","has_analysis":false},{"ticker":"CMCSA","name":"Comcast","sector":"Communication Services","signal_date":"2026-04-28","gap_up_pct":1.93,"selloff_pct":2.37,"outcome_1d":-2.17,"outcome_5d":-4.27,"outcome_10d":null,"signal_strength":33,"status":"active","catalyst_type":"positive_news","catalyst_headline":"Comcast Stock: Is Wall Street Bullish or Bearish?","gap_size":"Small","outcome_label":"Kept Falling","summary":"On April 28, 2026, Comcast jumped 1.9% because of positive news. But the next day it fell 2.2%.","has_analysis":false},{"ticker":"CF","name":"CF Industries","sector":"Materials","signal_date":"2026-04-28","gap_up_pct":1.71,"selloff_pct":3.52,"outcome_1d":1.55,"outcome_5d":4.68,"outcome_10d":null,"signal_strength":26,"status":"active","catalyst_type":null,"catalyst_headline":null,"gap_size":"Small","outcome_label":"Bounced","summary":"On April 28, 2026, CF Industries jumped 1.7% because of big news. The next day it bounced back another 1.6%!","has_analysis":false},{"ticker":"CCEP","name":"Coca-Cola Europacific Partners","sector":"","signal_date":"2026-04-28","gap_up_pct":3.92,"selloff_pct":2.88,"outcome_1d":-2.75,"outcome_5d":-3.81,"outcome_10d":null,"signal_strength":35,"status":"active","catalyst_type":null,"catalyst_headline":null,"gap_size":"Medium","outcome_label":"Kept Falling","summary":"On April 28, 2026, Coca-Cola Europacific Partners jumped 3.9% because of big news. But the next day it fell 2.8%.","has_analysis":false},{"ticker":"CAG","name":"Conagra Brands","sector":"Consumer Staples","signal_date":"2026-04-28","gap_up_pct":1.63,"selloff_pct":1.04,"outcome_1d":0.56,"outcome_5d":-1.89,"outcome_10d":null,"signal_strength":13,"status":"active","catalyst_type":null,"catalyst_headline":null,"gap_size":"Small","outcome_label":"Faded","summary":"On April 28, 2026, Conagra Brands jumped 1.6% because of big news. The next day it stayed about flat.","has_analysis":false},{"ticker":"BR","name":"Broadridge Financial Solutions","sector":"Industrials","signal_date":"2026-04-28","gap_up_pct":1.73,"selloff_pct":1.06,"outcome_1d":-3.05,"outcome_5d":-4.21,"outcome_10d":null,"signal_strength":14,"status":"active","catalyst_type":null,"catalyst_headline":null,"gap_size":"Small","outcome_label":"Kept Falling","summary":"On April 28, 2026, Broadridge Financial Solutions jumped 1.7% because of big news. But the next day it fell 3.0%.","has_analysis":false},{"ticker":"AVY","name":"Avery Dennison","sector":"Materials","signal_date":"2026-04-28","gap_up_pct":1.76,"selloff_pct":3.8,"outcome_1d":-1.54,"outcome_5d":-2.71,"outcome_10d":null,"signal_strength":58,"status":"active","catalyst_type":"earnings_beat","catalyst_headline":"Avery Dennison (NYSE:AVY) Q1 2026 Results Beat Estimates But Tepid Q2 Guidance Caps Gains","gap_size":"Small","outcome_label":"Kept Falling","summary":"On April 28, 2026, Avery Dennison jumped 1.8% because it beat earnings expectations. But the next day it fell 1.5%.","has_analysis":false},{"ticker":"APA","name":"APA Corporation","sector":"Energy","signal_date":"2026-04-28","gap_up_pct":2.37,"selloff_pct":2.15,"outcome_1d":5.38,"outcome_5d":7.32,"outcome_10d":null,"signal_strength":23,"status":"active","catalyst_type":null,"catalyst_headline":null,"gap_size":"Small","outcome_label":"Bounced","summary":"On April 28, 2026, APA Corporation jumped 2.4% because of big news. The next day it bounced back another 5.4%!","has_analysis":false},{"ticker":"AAPL","name":"Apple Inc.","sector":"Information Technology","signal_date":"2026-04-28","gap_up_pct":1.77,"selloff_pct":0.92,"outcome_1d":0.24,"outcome_5d":4.98,"outcome_10d":null,"signal_strength":13,"status":"active","catalyst_type":null,"catalyst_headline":null,"gap_size":"Small","outcome_label":"Faded","summary":"On April 28, 2026, Apple Inc. jumped 1.8% because of big news. The next day it stayed about flat.","has_analysis":false},{"ticker":"GEN","name":"Gen Digital","sector":"Information Technology","signal_date":"2026-04-28","gap_up_pct":1.58,"selloff_pct":2.18,"outcome_1d":0.21,"outcome_5d":2.39,"outcome_10d":null,"signal_strength":19,"status":"active","catalyst_type":null,"catalyst_headline":null,"gap_size":"Small","outcome_label":"Faded","summary":"On April 28, 2026, Gen Digital jumped 1.6% because of big news. The next day it stayed about flat.","has_analysis":false},{"ticker":"WDC","name":"Western Digital","sector":"Information Technology","signal_date":"2026-04-27","gap_up_pct":1.91,"selloff_pct":3.21,"outcome_1d":3.0,"outcome_5d":10.39,"outcome_10d":null,"signal_strength":36,"status":"active","catalyst_type":"positive_news","catalyst_headline":"John Fetterman's Micron Stock Bet Surges 61%, Notes Popular Nancy Pelosi Tracker: 'This Is Suspect'","gap_size":"Small","outcome_label":"Bounced","summary":"On April 27, 2026, Western Digital jumped 1.9% because of positive news. The next day it bounced back another 3.0%!","has_analysis":false},{"ticker":"VZ","name":"Verizon","sector":"Communication Services","signal_date":"2026-04-27","gap_up_pct":2.26,"selloff_pct":3.19,"outcome_1d":-1.04,"outcome_5d":1.0,"outcome_10d":null,"signal_strength":38,"status":"active","catalyst_type":"positive_news","catalyst_headline":"Micron stock pops, Verizon reports positive subscriber growth","gap_size":"Small","outcome_label":"Kept Falling","summary":"On April 27, 2026, Verizon jumped 2.3% because of positive news. But the next day it fell 1.0%.","has_analysis":false},{"ticker":"SWK","name":"Stanley Black & Decker","sector":"Industrials","signal_date":"2026-04-27","gap_up_pct":1.5,"selloff_pct":1.75,"outcome_1d":-4.97,"outcome_5d":-6.25,"outcome_10d":null,"signal_strength":18,"status":"active","catalyst_type":null,"catalyst_headline":null,"gap_size":"Small","outcome_label":"Kept Falling","summary":"On April 27, 2026, Stanley Black & Decker jumped 1.5% because of big news. But the next day it fell 5.0%.","has_analysis":false},{"ticker":"STX","name":"Seagate Technology","sector":"Information Technology","signal_date":"2026-04-27","gap_up_pct":2.23,"selloff_pct":1.17,"outcome_1d":7.96,"outcome_5d":23.95,"outcome_10d":null,"signal_strength":51,"status":"active","catalyst_type":"earnings_beat","catalyst_headline":"STX Likely to Beat Q3 Earnings Estimates: How to Approach the Stock Now?","gap_size":"Small","outcome_label":"Bounced","summary":"On April 27, 2026, Seagate Technology jumped 2.2% because it beat earnings expectations. The next day it bounced back another 8.0%!","has_analysis":false},{"ticker":"QCOM","name":"Qualcomm","sector":"Information Technology","signal_date":"2026-04-27","gap_up_pct":5.01,"selloff_pct":6.67,"outcome_1d":3.82,"outcome_5d":12.06,"outcome_10d":null,"signal_strength":61,"status":"active","catalyst_type":null,"catalyst_headline":null,"gap_size":"Big","outcome_label":"Bounced","summary":"On April 27, 2026, Qualcomm jumped 5.0% because of big news. The next day it bounced back another 3.8%!","has_analysis":false},{"ticker":"MU","name":"Micron Technology","sector":"Information Technology","signal_date":"2026-04-27","gap_up_pct":2.79,"selloff_pct":1.28,"outcome_1d":-1.16,"outcome_5d":9.89,"outcome_10d":null,"signal_strength":30,"status":"active","catalyst_type":"positive_news","catalyst_headline":"John Fetterman's Micron Stock Bet Surges 61%, Notes Popular Nancy Pelosi Tracker: 'This Is Suspect'","gap_size":"Small","outcome_label":"Kept Falling","summary":"On April 27, 2026, Micron Technology jumped 2.8% because of positive news. But the next day it fell 1.2%.","has_analysis":false},{"ticker":"GNRC","name":"Generac","sector":"Industrials","signal_date":"2026-04-27","gap_up_pct":1.94,"selloff_pct":3.16,"outcome_1d":14.81,"outcome_5d":16.69,"outcome_10d":null,"signal_strength":35,"status":"active","catalyst_type":null,"catalyst_headline":null,"gap_size":"Small","outcome_label":"Bounced","summary":"On April 27, 2026, Generac jumped 1.9% because of big news. The next day it bounced back another 14.8%!","has_analysis":false},{"ticker":"DOW","name":"Dow Inc.","sector":"Materials","signal_date":"2026-04-27","gap_up_pct":2.17,"selloff_pct":4.08,"outcome_1d":3.81,"outcome_5d":6.51,"outcome_10d":null,"signal_strength":51,"status":"active","catalyst_type":"upgrade","catalyst_headline":"RBC Capital Maintains Outperform on Dow, Raises Price Target to $51","gap_size":"Small","outcome_label":"Bounced","summary":"On April 27, 2026, Dow Inc. jumped 2.2% because an analyst upgraded the stock. The next day it bounced back another 3.8%!","has_analysis":false},{"ticker":"BKR","name":"Baker Hughes","sector":"Energy","signal_date":"2026-04-27","gap_up_pct":1.54,"selloff_pct":2.88,"outcome_1d":0.63,"outcome_5d":0.92,"outcome_10d":null,"signal_strength":42,"status":"active","catalyst_type":"upgrade","catalyst_headline":"UBS Maintains Neutral on Baker Hughes, Raises Price Target to $73","gap_size":"Small","outcome_label":"Faded","summary":"On April 27, 2026, Baker Hughes jumped 1.5% because an analyst upgraded the stock. The next day it stayed about flat.","has_analysis":false},{"ticker":"WST","name":"West Pharmaceutical Services","sector":"Health Care","signal_date":"2026-04-24","gap_up_pct":2.03,"selloff_pct":3.11,"outcome_1d":-4.58,"outcome_5d":-1.79,"outcome_10d":null,"signal_strength":54,"status":"active","catalyst_type":"earnings_beat","catalyst_headline":"West Pharmaceutical: A High-Quality Beat-And-Raise With More Upside Ahead","gap_size":"Small","outcome_label":"Kept Falling","summary":"On April 24, 2026, West Pharmaceutical Services jumped 2.0% because it beat earnings expectations. But the next day it fell 4.6%.","has_analysis":false},{"ticker":"WDC","name":"Western Digital","sector":"Information Technology","signal_date":"2026-04-24","gap_up_pct":1.73,"selloff_pct":2.53,"outcome_1d":-3.22,"outcome_5d":6.81,"outcome_10d":null,"signal_strength":21,"status":"active","catalyst_type":null,"catalyst_headline":null,"gap_size":"Small","outcome_label":"Kept Falling","summary":"On April 24, 2026, Western Digital jumped 1.7% because of big news. But the next day it fell 3.2%.","has_analysis":false},{"ticker":"VRT","name":"Vertiv","sector":"Industrials","signal_date":"2026-04-24","gap_up_pct":1.94,"selloff_pct":2.07,"outcome_1d":-5.7,"outcome_5d":1.5,"outcome_10d":null,"signal_strength":45,"status":"active","catalyst_type":"earnings_beat","catalyst_headline":"Vertiv's Long-Term Growth Story Continues With Q1 Earnings Beat, Guidance Raise, RBC Says","gap_size":"Small","outcome_label":"Kept Falling","summary":"On April 24, 2026, Vertiv jumped 1.9% because it beat earnings expectations. But the next day it fell 5.7%.","has_analysis":false},{"ticker":"TXN","name":"Texas Instruments","sector":"Information Technology","signal_date":"2026-04-24","gap_up_pct":1.98,"selloff_pct":3.71,"outcome_1d":-4.38,"outcome_5d":1.4,"outcome_10d":null,"signal_strength":58,"status":"active","catalyst_type":"earnings_beat","catalyst_headline":"This Week's Market Wrap: Strong Earnings, Ceasefire Uncertainty, And Creeping Inflation","gap_size":"Small","outcome_label":"Kept Falling","summary":"On April 24, 2026, Texas Instruments jumped 2.0% because it beat earnings expectations. But the next day it fell 4.4%.","has_analysis":false}]}