{"total":875,"page":1,"per_page":50,"total_pages":18,"filters":{"gap_sizes":["Small","Medium","Big","Huge"],"outcomes":["Bounced","Faded","Kept Falling"],"sectors":["","Communication Services","Consumer Discretionary","Consumer Staples","Energy","Financials","Health Care","Industrials","Information Technology","Materials","Real Estate","Utilities"]},"events":[{"ticker":"WDC","name":"Western Digital","sector":"Information Technology","signal_date":"2026-05-27","gap_up_pct":2.73,"selloff_pct":2.94,"outcome_1d":null,"outcome_5d":null,"outcome_10d":null,"signal_strength":38,"status":"active","catalyst_type":"positive_news","catalyst_headline":"S&P 500, Nasdaq Rally, Middle East Peace Optimism Drive US Equity Futures Higher Pre-Bell","gap_size":"Small","outcome_label":"Pending","summary":"On May 27, 2026, Western Digital jumped 2.7% because of positive news.","has_analysis":false},{"ticker":"UAL","name":"United Airlines Holdings","sector":"Industrials","signal_date":"2026-05-27","gap_up_pct":3.21,"selloff_pct":1.51,"outcome_1d":null,"outcome_5d":null,"outcome_10d":null,"signal_strength":49,"status":"active","catalyst_type":"earnings_beat","catalyst_headline":"Abercrombie & Fitch Upbeat Q1 Earnings, Joins Digital Turbine, Dycom Industries And Other Big Stocks Moving Higher On Wednesday","gap_size":"Medium","outcome_label":"Pending","summary":"On May 27, 2026, United Airlines Holdings jumped 3.2% because it beat earnings expectations.","has_analysis":false},{"ticker":"TXN","name":"Texas Instruments","sector":"Information Technology","signal_date":"2026-05-27","gap_up_pct":2.02,"selloff_pct":4.24,"outcome_1d":null,"outcome_5d":null,"outcome_10d":null,"signal_strength":31,"status":"active","catalyst_type":null,"catalyst_headline":null,"gap_size":"Small","outcome_label":"Pending","summary":"On May 27, 2026, Texas Instruments jumped 2.0% because of big news.","has_analysis":false},{"ticker":"TSLA","name":"Tesla, Inc.","sector":"Consumer Discretionary","signal_date":"2026-05-27","gap_up_pct":2.14,"selloff_pct":1.18,"outcome_1d":null,"outcome_5d":null,"outcome_10d":null,"signal_strength":37,"status":"active","catalyst_type":"upgrade","catalyst_headline":"NIO Is Up 9% Today: Is It Outperforming Other EV Stocks Like Tesla and Rivian?","gap_size":"Small","outcome_label":"Pending","summary":"On May 27, 2026, Tesla, Inc. jumped 2.1% because an analyst upgraded the stock.","has_analysis":false},{"ticker":"TER","name":"Teradyne","sector":"Information Technology","signal_date":"2026-05-27","gap_up_pct":3.34,"selloff_pct":7.58,"outcome_1d":null,"outcome_5d":null,"outcome_10d":null,"signal_strength":67,"status":"active","catalyst_type":"earnings_beat","catalyst_headline":"Dow Jones Futures: S&P 500, Nasdaq Hit Highs, Micron Tops $1 Trillion; 5 AI Stocks In Buy Areas","gap_size":"Medium","outcome_label":"Pending","summary":"On May 27, 2026, Teradyne jumped 3.3% because it beat earnings expectations.","has_analysis":false},{"ticker":"TECH","name":"Bio-Techne","sector":"Health Care","signal_date":"2026-05-27","gap_up_pct":1.5,"selloff_pct":2.59,"outcome_1d":null,"outcome_5d":null,"outcome_10d":null,"signal_strength":20,"status":"active","catalyst_type":null,"catalyst_headline":null,"gap_size":"Small","outcome_label":"Pending","summary":"On May 27, 2026, Bio-Techne jumped 1.5% because of big news.","has_analysis":false},{"ticker":"STX","name":"Seagate Technology","sector":"Information Technology","signal_date":"2026-05-27","gap_up_pct":4.18,"selloff_pct":2.06,"outcome_1d":null,"outcome_5d":null,"outcome_10d":null,"signal_strength":51,"status":"active","catalyst_type":"upgrade","catalyst_headline":"Barclays Maintains Overweight on Seagate Technology Hldgs, Raises Price Target to $1000","gap_size":"Medium","outcome_label":"Pending","summary":"On May 27, 2026, Seagate Technology jumped 4.2% because an analyst upgraded the stock.","has_analysis":false},{"ticker":"SNDK","name":"Sandisk","sector":"Information Technology","signal_date":"2026-05-27","gap_up_pct":3.55,"selloff_pct":4.15,"outcome_1d":null,"outcome_5d":null,"outcome_10d":null,"signal_strength":59,"status":"active","catalyst_type":"upgrade","catalyst_headline":"FedEx upgraded, Dollar General downgraded: Wall Street's top analyst calls","gap_size":"Medium","outcome_label":"Pending","summary":"On May 27, 2026, Sandisk jumped 3.5% because an analyst upgraded the stock.","has_analysis":false},{"ticker":"SMCI","name":"Supermicro","sector":"Information Technology","signal_date":"2026-05-27","gap_up_pct":3.21,"selloff_pct":1.61,"outcome_1d":null,"outcome_5d":null,"outcome_10d":null,"signal_strength":34,"status":"active","catalyst_type":"positive_news","catalyst_headline":"Supermicro Stock Rises On New AI Infrastructure Partnership In Europe","gap_size":"Medium","outcome_label":"Pending","summary":"On May 27, 2026, Supermicro jumped 3.2% because of positive news.","has_analysis":false},{"ticker":"RCL","name":"Royal Caribbean Group","sector":"Consumer Discretionary","signal_date":"2026-05-27","gap_up_pct":2.5,"selloff_pct":2.23,"outcome_1d":null,"outcome_5d":null,"outcome_10d":null,"signal_strength":34,"status":"active","catalyst_type":"positive_news","catalyst_headline":"Cruise stocks surge as oil slides 3% on U.S.-Iran deal hopes","gap_size":"Small","outcome_label":"Pending","summary":"On May 27, 2026, Royal Caribbean Group jumped 2.5% because of positive news.","has_analysis":false},{"ticker":"ON","name":"ON Semiconductor","sector":"Information Technology","signal_date":"2026-05-27","gap_up_pct":1.52,"selloff_pct":3.19,"outcome_1d":null,"outcome_5d":null,"outcome_10d":null,"signal_strength":44,"status":"active","catalyst_type":"upgrade","catalyst_headline":"Q1 Earnings Outperformers: onsemi (NASDAQ:ON) And The Rest Of The Analog Semiconductors Stocks","gap_size":"Small","outcome_label":"Pending","summary":"On May 27, 2026, ON Semiconductor jumped 1.5% because an analyst upgraded the stock.","has_analysis":false},{"ticker":"NKE","name":"Nike, Inc.","sector":"Consumer Discretionary","signal_date":"2026-05-27","gap_up_pct":1.72,"selloff_pct":1.31,"outcome_1d":null,"outcome_5d":null,"outcome_10d":null,"signal_strength":25,"status":"active","catalyst_type":"positive_news","catalyst_headline":"Lululemon stock rises on proxy battle deal with founder Chip Wilson","gap_size":"Small","outcome_label":"Pending","summary":"On May 27, 2026, Nike, Inc. jumped 1.7% because of positive news.","has_analysis":false},{"ticker":"NCLH","name":"Norwegian Cruise Line Holdings","sector":"Consumer Discretionary","signal_date":"2026-05-27","gap_up_pct":4.09,"selloff_pct":1.41,"outcome_1d":null,"outcome_5d":null,"outcome_10d":null,"signal_strength":38,"status":"active","catalyst_type":"positive_news","catalyst_headline":"Cruise stocks surge as oil slides 3% on U.S.-Iran deal hopes","gap_size":"Medium","outcome_label":"Pending","summary":"On May 27, 2026, Norwegian Cruise Line Holdings jumped 4.1% because of positive news.","has_analysis":false},{"ticker":"MU","name":"Micron Technology","sector":"Information Technology","signal_date":"2026-05-27","gap_up_pct":6.67,"selloff_pct":2.9,"outcome_1d":null,"outcome_5d":null,"outcome_10d":null,"signal_strength":60,"status":"active","catalyst_type":"upgrade","catalyst_headline":"Micron Stock Jumps on Wave of Analysts Upgrade","gap_size":"Big","outcome_label":"Pending","summary":"On May 27, 2026, Micron Technology jumped 6.7% because an analyst upgraded the stock.","has_analysis":false},{"ticker":"MRVL","name":"Marvell Technology","sector":"","signal_date":"2026-05-27","gap_up_pct":4.67,"selloff_pct":8.96,"outcome_1d":null,"outcome_5d":null,"outcome_10d":null,"signal_strength":58,"status":"active","catalyst_type":"positive_news","catalyst_headline":"Marvell Earnings Put AI Rally to Test","gap_size":"Medium","outcome_label":"Pending","summary":"On May 27, 2026, Marvell Technology jumped 4.7% because of positive news.","has_analysis":false},{"ticker":"MPWR","name":"Monolithic Power Systems","sector":"Information Technology","signal_date":"2026-05-27","gap_up_pct":2.68,"selloff_pct":4.7,"outcome_1d":null,"outcome_5d":null,"outcome_10d":null,"signal_strength":47,"status":"active","catalyst_type":"positive_news","catalyst_headline":"Vicor Stock Surges on Guidance Boost, Lifts Power Chip Stocks Like Wolfspeed","gap_size":"Small","outcome_label":"Pending","summary":"On May 27, 2026, Monolithic Power Systems jumped 2.7% because of positive news.","has_analysis":false},{"ticker":"MGM","name":"MGM Resorts","sector":"Consumer Discretionary","signal_date":"2026-05-27","gap_up_pct":4.86,"selloff_pct":1.78,"outcome_1d":null,"outcome_5d":null,"outcome_10d":null,"signal_strength":53,"status":"active","catalyst_type":"upgrade","catalyst_headline":"MGM Stock Receives Two Upgrades. Can the Stock Close At Its Highest Level Since 2024?","gap_size":"Medium","outcome_label":"Pending","summary":"On May 27, 2026, MGM Resorts jumped 4.9% because an analyst upgraded the stock.","has_analysis":false},{"ticker":"MAS","name":"Masco","sector":"Industrials","signal_date":"2026-05-27","gap_up_pct":1.57,"selloff_pct":2.08,"outcome_1d":null,"outcome_5d":null,"outcome_10d":null,"signal_strength":18,"status":"active","catalyst_type":null,"catalyst_headline":null,"gap_size":"Small","outcome_label":"Pending","summary":"On May 27, 2026, Masco jumped 1.6% because of big news.","has_analysis":false},{"ticker":"LUV","name":"Southwest Airlines","sector":"Industrials","signal_date":"2026-05-27","gap_up_pct":2.79,"selloff_pct":1.65,"outcome_1d":null,"outcome_5d":null,"outcome_10d":null,"signal_strength":47,"status":"active","catalyst_type":"earnings_beat","catalyst_headline":"Micron's new milestone, Dick's earnings, Paxton beats Cornyn and more in Morning Squawk","gap_size":"Small","outcome_label":"Pending","summary":"On May 27, 2026, Southwest Airlines jumped 2.8% because it beat earnings expectations.","has_analysis":false},{"ticker":"LULU","name":"Lululemon Athletica","sector":"Consumer Discretionary","signal_date":"2026-05-27","gap_up_pct":3.62,"selloff_pct":3.75,"outcome_1d":null,"outcome_5d":null,"outcome_10d":null,"signal_strength":47,"status":"active","catalyst_type":"positive_news","catalyst_headline":"Lululemon Nears Deal With Founder","gap_size":"Medium","outcome_label":"Pending","summary":"On May 27, 2026, Lululemon Athletica jumped 3.6% because of positive news.","has_analysis":false},{"ticker":"LRCX","name":"Lam Research","sector":"Information Technology","signal_date":"2026-05-27","gap_up_pct":2.78,"selloff_pct":4.32,"outcome_1d":null,"outcome_5d":null,"outcome_10d":null,"signal_strength":56,"status":"active","catalyst_type":"upgrade","catalyst_headline":"Mizuho Maintains Outperform on Lam Research, Raises Price Target to $380","gap_size":"Small","outcome_label":"Pending","summary":"On May 27, 2026, Lam Research jumped 2.8% because an analyst upgraded the stock.","has_analysis":false},{"ticker":"KLAC","name":"KLA Corporation","sector":"Information Technology","signal_date":"2026-05-27","gap_up_pct":1.75,"selloff_pct":4.99,"outcome_1d":null,"outcome_5d":null,"outcome_10d":null,"signal_strength":34,"status":"active","catalyst_type":null,"catalyst_headline":null,"gap_size":"Small","outcome_label":"Pending","summary":"On May 27, 2026, KLA Corporation jumped 1.8% because of big news.","has_analysis":false},{"ticker":"HSY","name":"Hershey Company (The)","sector":"Consumer Staples","signal_date":"2026-05-27","gap_up_pct":1.87,"selloff_pct":1.09,"outcome_1d":null,"outcome_5d":null,"outcome_10d":null,"signal_strength":35,"status":"active","catalyst_type":"upgrade","catalyst_headline":"FedEx upgraded, Dollar General downgraded: Wall Street's top analyst calls","gap_size":"Small","outcome_label":"Pending","summary":"On May 27, 2026, Hershey Company (The) jumped 1.9% because an analyst upgraded the stock.","has_analysis":false},{"ticker":"EL","name":"Estée Lauder Companies (The)","sector":"Consumer Staples","signal_date":"2026-05-27","gap_up_pct":2.02,"selloff_pct":1.14,"outcome_1d":null,"outcome_5d":null,"outcome_10d":null,"signal_strength":16,"status":"active","catalyst_type":null,"catalyst_headline":null,"gap_size":"Small","outcome_label":"Pending","summary":"On May 27, 2026, Estée Lauder Companies (The) jumped 2.0% because of big news.","has_analysis":false},{"ticker":"ECL","name":"Ecolab","sector":"Materials","signal_date":"2026-05-27","gap_up_pct":2.27,"selloff_pct":1.62,"outcome_1d":null,"outcome_5d":null,"outcome_10d":null,"signal_strength":19,"status":"active","catalyst_type":null,"catalyst_headline":null,"gap_size":"Small","outcome_label":"Pending","summary":"On May 27, 2026, Ecolab jumped 2.3% because of big news.","has_analysis":false},{"ticker":"DRI","name":"Darden Restaurants","sector":"Consumer Discretionary","signal_date":"2026-05-27","gap_up_pct":1.5,"selloff_pct":2.14,"outcome_1d":null,"outcome_5d":null,"outcome_10d":null,"signal_strength":38,"status":"active","catalyst_type":"upgrade","catalyst_headline":"Keybanc Maintains Overweight on Darden Restaurants, Raises Price Target to $228","gap_size":"Small","outcome_label":"Pending","summary":"On May 27, 2026, Darden Restaurants jumped 1.5% because an analyst upgraded the stock.","has_analysis":false},{"ticker":"DAL","name":"Delta Air Lines","sector":"Industrials","signal_date":"2026-05-27","gap_up_pct":1.71,"selloff_pct":2.33,"outcome_1d":null,"outcome_5d":null,"outcome_10d":null,"signal_strength":40,"status":"active","catalyst_type":"upgrade","catalyst_headline":"American Airlines Says 'Scrolling' Just Got Upgraded As It Chooses Elon Musk's SpaceX As Inflight Wi-Fi Partner On 500 Planes — AAL Stock Spikes","gap_size":"Small","outcome_label":"Pending","summary":"On May 27, 2026, Delta Air Lines jumped 1.7% because an analyst upgraded the stock.","has_analysis":false},{"ticker":"CDW","name":"CDW Corporation","sector":"Information Technology","signal_date":"2026-05-27","gap_up_pct":2.61,"selloff_pct":2.17,"outcome_1d":null,"outcome_5d":null,"outcome_10d":null,"signal_strength":49,"status":"active","catalyst_type":"earnings_beat","catalyst_headline":"Assessing CDW (CDW) Valuation After Q1 Beat And Improving Macro Tailwinds","gap_size":"Small","outcome_label":"Pending","summary":"On May 27, 2026, CDW Corporation jumped 2.6% because it beat earnings expectations.","has_analysis":false},{"ticker":"CCL","name":"Carnival","sector":"Consumer Discretionary","signal_date":"2026-05-27","gap_up_pct":2.88,"selloff_pct":1.06,"outcome_1d":null,"outcome_5d":null,"outcome_10d":null,"signal_strength":30,"status":"active","catalyst_type":"positive_news","catalyst_headline":"Cruise stocks surge as oil slides 3% on U.S.-Iran deal hopes","gap_size":"Small","outcome_label":"Pending","summary":"On May 27, 2026, Carnival jumped 2.9% because of positive news.","has_analysis":false},{"ticker":"BLDR","name":"Builders FirstSource","sector":"Industrials","signal_date":"2026-05-27","gap_up_pct":2.81,"selloff_pct":2.94,"outcome_1d":null,"outcome_5d":null,"outcome_10d":null,"signal_strength":29,"status":"active","catalyst_type":null,"catalyst_headline":null,"gap_size":"Small","outcome_label":"Pending","summary":"On May 27, 2026, Builders FirstSource jumped 2.8% because of big news.","has_analysis":false},{"ticker":"ADI","name":"Analog Devices","sector":"Information Technology","signal_date":"2026-05-27","gap_up_pct":3.23,"selloff_pct":3.83,"outcome_1d":null,"outcome_5d":null,"outcome_10d":null,"signal_strength":45,"status":"active","catalyst_type":"positive_news","catalyst_headline":"Why Analog Devices (ADI) Might be Well Poised for a Surge","gap_size":"Medium","outcome_label":"Pending","summary":"On May 27, 2026, Analog Devices jumped 3.2% because of positive news.","has_analysis":false},{"ticker":"WDC","name":"Western Digital","sector":"Information Technology","signal_date":"2026-05-26","gap_up_pct":4.24,"selloff_pct":2.14,"outcome_1d":null,"outcome_5d":null,"outcome_10d":null,"signal_strength":42,"status":"active","catalyst_type":"positive_news","catalyst_headline":"Nasdaq, S&P 500 Log New Peaks as Micron Drives Tech Rally","gap_size":"Medium","outcome_label":"Pending","summary":"On May 26, 2026, Western Digital jumped 4.2% because of positive news.","has_analysis":false},{"ticker":"VST","name":"Vistra Corp.","sector":"Utilities","signal_date":"2026-05-26","gap_up_pct":1.69,"selloff_pct":1.7,"outcome_1d":null,"outcome_5d":null,"outcome_10d":null,"signal_strength":17,"status":"active","catalyst_type":null,"catalyst_headline":null,"gap_size":"Small","outcome_label":"Pending","summary":"On May 26, 2026, Vistra Corp. jumped 1.7% because of big news.","has_analysis":false},{"ticker":"VRT","name":"Vertiv","sector":"Industrials","signal_date":"2026-05-26","gap_up_pct":4.15,"selloff_pct":5.65,"outcome_1d":null,"outcome_5d":null,"outcome_10d":null,"signal_strength":56,"status":"active","catalyst_type":"positive_news","catalyst_headline":"Xerox and Super Micro Shares Are Soaring, What You Need To Know","gap_size":"Medium","outcome_label":"Pending","summary":"On May 26, 2026, Vertiv jumped 4.2% because of positive news.","has_analysis":false},{"ticker":"TEL","name":"TE Connectivity","sector":"Information Technology","signal_date":"2026-05-26","gap_up_pct":2.46,"selloff_pct":1.65,"outcome_1d":null,"outcome_5d":null,"outcome_10d":null,"signal_strength":21,"status":"active","catalyst_type":null,"catalyst_headline":null,"gap_size":"Small","outcome_label":"Pending","summary":"On May 26, 2026, TE Connectivity jumped 2.5% because of big news.","has_analysis":false},{"ticker":"STX","name":"Seagate Technology","sector":"Information Technology","signal_date":"2026-05-26","gap_up_pct":2.27,"selloff_pct":1.96,"outcome_1d":null,"outcome_5d":null,"outcome_10d":null,"signal_strength":41,"status":"active","catalyst_type":"upgrade","catalyst_headline":"B of A Securities Maintains Buy on Seagate Technology Hldgs, Raises Price Target to $900","gap_size":"Small","outcome_label":"Pending","summary":"On May 26, 2026, Seagate Technology jumped 2.3% because an analyst upgraded the stock.","has_analysis":false},{"ticker":"SNDK","name":"Sandisk","sector":"Information Technology","signal_date":"2026-05-26","gap_up_pct":3.82,"selloff_pct":3.18,"outcome_1d":null,"outcome_5d":null,"outcome_10d":null,"signal_strength":45,"status":"active","catalyst_type":"positive_news","catalyst_headline":"S&P 500 Hits Another High on Back of 5-Day Chip Stock Rally","gap_size":"Medium","outcome_label":"Pending","summary":"On May 26, 2026, Sandisk jumped 3.8% because of positive news.","has_analysis":false},{"ticker":"SATS","name":"EchoStar","sector":"Communication Services","signal_date":"2026-05-26","gap_up_pct":4.24,"selloff_pct":6.37,"outcome_1d":null,"outcome_5d":null,"outcome_10d":null,"signal_strength":59,"status":"active","catalyst_type":"positive_news","catalyst_headline":"Space Stocks Soar After SpaceX Files for Record-Breaking IPO","gap_size":"Medium","outcome_label":"Pending","summary":"On May 26, 2026, EchoStar jumped 4.2% because of positive news.","has_analysis":false},{"ticker":"RL","name":"Ralph Lauren Corporation","sector":"Consumer Discretionary","signal_date":"2026-05-26","gap_up_pct":1.91,"selloff_pct":2.63,"outcome_1d":null,"outcome_5d":null,"outcome_10d":null,"signal_strength":48,"status":"active","catalyst_type":"earnings_beat","catalyst_headline":"Ralph Lauren (RL) Is Up 19.0% After Strong FY26 Beat And Higher Dividend - What's Changed","gap_size":"Small","outcome_label":"Pending","summary":"On May 26, 2026, Ralph Lauren Corporation jumped 1.9% because it beat earnings expectations.","has_analysis":false},{"ticker":"ON","name":"ON Semiconductor","sector":"Information Technology","signal_date":"2026-05-26","gap_up_pct":5.68,"selloff_pct":1.65,"outcome_1d":null,"outcome_5d":null,"outcome_10d":null,"signal_strength":44,"status":"active","catalyst_type":"positive_news","catalyst_headline":"Nasdaq, S&P 500 Log New Peaks as Micron Drives Tech Rally","gap_size":"Big","outcome_label":"Pending","summary":"On May 26, 2026, ON Semiconductor jumped 5.7% because of positive news.","has_analysis":false},{"ticker":"NRG","name":"NRG Energy","sector":"Utilities","signal_date":"2026-05-26","gap_up_pct":1.71,"selloff_pct":1.85,"outcome_1d":null,"outcome_5d":null,"outcome_10d":null,"signal_strength":18,"status":"active","catalyst_type":null,"catalyst_headline":null,"gap_size":"Small","outcome_label":"Pending","summary":"On May 26, 2026, NRG Energy jumped 1.7% because of big news.","has_analysis":false},{"ticker":"MU","name":"Micron Technology","sector":"Information Technology","signal_date":"2026-05-26","gap_up_pct":9.25,"selloff_pct":2.28,"outcome_1d":null,"outcome_5d":null,"outcome_10d":null,"signal_strength":66,"status":"active","catalyst_type":"earnings_beat","catalyst_headline":"Dow Jones Futures: S&P 500, Nasdaq Hit Highs, Micron Tops $1 Trillion; 5 AI Stocks In Buy Areas","gap_size":"Big","outcome_label":"Pending","summary":"On May 26, 2026, Micron Technology jumped 9.2% because it beat earnings expectations.","has_analysis":false},{"ticker":"MRVL","name":"Marvell Technology","sector":"","signal_date":"2026-05-26","gap_up_pct":7.59,"selloff_pct":4.23,"outcome_1d":null,"outcome_5d":null,"outcome_10d":null,"signal_strength":66,"status":"active","catalyst_type":"positive_news","catalyst_headline":"Nasdaq, S&P 500 Log New Peaks as Micron Drives Tech Rally","gap_size":"Big","outcome_label":"Pending","summary":"On May 26, 2026, Marvell Technology jumped 7.6% because of positive news.","has_analysis":false},{"ticker":"MPWR","name":"Monolithic Power Systems","sector":"Information Technology","signal_date":"2026-05-26","gap_up_pct":3.82,"selloff_pct":2.98,"outcome_1d":null,"outcome_5d":null,"outcome_10d":null,"signal_strength":45,"status":"active","catalyst_type":"positive_news","catalyst_headline":"Vicor Stock Surges on Guidance Boost, Lifts Power Chip Stocks Like Wolfspeed","gap_size":"Medium","outcome_label":"Pending","summary":"On May 26, 2026, Monolithic Power Systems jumped 3.8% because of positive news.","has_analysis":false},{"ticker":"MCHP","name":"Microchip Technology","sector":"Information Technology","signal_date":"2026-05-26","gap_up_pct":2.58,"selloff_pct":1.92,"outcome_1d":null,"outcome_5d":null,"outcome_10d":null,"signal_strength":23,"status":"active","catalyst_type":null,"catalyst_headline":null,"gap_size":"Small","outcome_label":"Pending","summary":"On May 26, 2026, Microchip Technology jumped 2.6% because of big news.","has_analysis":false},{"ticker":"LUV","name":"Southwest Airlines","sector":"Industrials","signal_date":"2026-05-26","gap_up_pct":3.38,"selloff_pct":1.47,"outcome_1d":null,"outcome_5d":null,"outcome_10d":null,"signal_strength":47,"status":"active","catalyst_type":"upgrade","catalyst_headline":"American Airlines Says 'Scrolling' Just Got Upgraded As It Chooses Elon Musk's SpaceX As Inflight Wi-Fi Partner On 500 Planes — AAL Stock Spikes","gap_size":"Medium","outcome_label":"Pending","summary":"On May 26, 2026, Southwest Airlines jumped 3.4% because an analyst upgraded the stock.","has_analysis":false},{"ticker":"LITE","name":"Lumentum","sector":"Information Technology","signal_date":"2026-05-26","gap_up_pct":1.7,"selloff_pct":5.42,"outcome_1d":null,"outcome_5d":null,"outcome_10d":null,"signal_strength":44,"status":"active","catalyst_type":"positive_news","catalyst_headline":"How The Lumentum Holdings (LITE) Story Is Shifting With AI Deals And New Valuation Calls","gap_size":"Small","outcome_label":"Pending","summary":"On May 26, 2026, Lumentum jumped 1.7% because of positive news.","has_analysis":false},{"ticker":"JCI","name":"Johnson Controls","sector":"Industrials","signal_date":"2026-05-26","gap_up_pct":1.53,"selloff_pct":0.87,"outcome_1d":null,"outcome_5d":null,"outcome_10d":null,"signal_strength":12,"status":"active","catalyst_type":null,"catalyst_headline":null,"gap_size":"Small","outcome_label":"Pending","summary":"On May 26, 2026, Johnson Controls jumped 1.5% because of big news.","has_analysis":false},{"ticker":"INTC","name":"Intel","sector":"Information Technology","signal_date":"2026-05-26","gap_up_pct":1.89,"selloff_pct":1.67,"outcome_1d":null,"outcome_5d":null,"outcome_10d":null,"signal_strength":43,"status":"active","catalyst_type":"earnings_beat","catalyst_headline":"Why Honeywell Stock Topped the Market on Tuesday","gap_size":"Small","outcome_label":"Pending","summary":"On May 26, 2026, Intel jumped 1.9% because it beat earnings expectations.","has_analysis":false},{"ticker":"IEX","name":"IDEX Corporation","sector":"Industrials","signal_date":"2026-05-26","gap_up_pct":1.53,"selloff_pct":0.44,"outcome_1d":null,"outcome_5d":null,"outcome_10d":null,"signal_strength":10,"status":"active","catalyst_type":null,"catalyst_headline":null,"gap_size":"Small","outcome_label":"Pending","summary":"On May 26, 2026, IDEX Corporation jumped 1.5% because of big news.","has_analysis":false}]}