{"total":1237,"page":2,"per_page":50,"total_pages":25,"filters":{"gap_sizes":["Small","Medium","Big","Huge"],"outcomes":["Bounced","Faded","Kept Falling"],"sectors":["","Communication Services","Consumer Discretionary","Consumer Staples","Energy","Financials","Health Care","Industrials","Information Technology","Materials","Real Estate","Utilities"]},"events":[{"ticker":"TXN","name":"Texas Instruments","sector":"Information Technology","signal_date":"2026-06-09","gap_up_pct":2.39,"selloff_pct":3.15,"outcome_1d":2.93,"outcome_5d":null,"outcome_10d":null,"signal_strength":48,"status":"active","catalyst_type":"upgrade","catalyst_headline":"Wells Fargo Maintains Equal-Weight on Texas Instruments, Raises Price Target to $300","gap_size":"Small","outcome_label":"Bounced","summary":"On June 09, 2026, Texas Instruments jumped 2.4% because an analyst upgraded the stock. The next day it bounced back another 2.9%!","has_analysis":false},{"ticker":"TER","name":"Teradyne","sector":"Information Technology","signal_date":"2026-06-09","gap_up_pct":3.18,"selloff_pct":6.68,"outcome_1d":3.3,"outcome_5d":null,"outcome_10d":null,"signal_strength":51,"status":"active","catalyst_type":"positive_news","catalyst_headline":"Micron Rallies, Nasdaq 100 Rebounds As Trump Calls For Immediate Iran-Israel Ceasefire","gap_size":"Medium","outcome_label":"Bounced","summary":"On June 09, 2026, Teradyne jumped 3.2% because of positive news. The next day it bounced back another 3.3%!","has_analysis":false},{"ticker":"TEL","name":"TE Connectivity","sector":"Information Technology","signal_date":"2026-06-09","gap_up_pct":2.18,"selloff_pct":2.64,"outcome_1d":-1.5,"outcome_5d":null,"outcome_10d":null,"signal_strength":34,"status":"active","catalyst_type":"positive_news","catalyst_headline":"Is It Too Late To Consider TE Connectivity (TEL) After Its Strong Multi Year Rally?","gap_size":"Small","outcome_label":"Kept Falling","summary":"On June 09, 2026, TE Connectivity jumped 2.2% because of positive news. But the next day it fell 1.5%.","has_analysis":false},{"ticker":"TECH","name":"Bio-Techne","sector":"Health Care","signal_date":"2026-06-09","gap_up_pct":1.5,"selloff_pct":1.36,"outcome_1d":-0.72,"outcome_5d":null,"outcome_10d":null,"signal_strength":14,"status":"active","catalyst_type":null,"catalyst_headline":null,"gap_size":"Small","outcome_label":"Faded","summary":"On June 09, 2026, Bio-Techne jumped 1.5% because of big news. The next day it stayed about flat.","has_analysis":false},{"ticker":"STX","name":"Seagate Technology","sector":"Information Technology","signal_date":"2026-06-09","gap_up_pct":3.79,"selloff_pct":7.16,"outcome_1d":2.61,"outcome_5d":null,"outcome_10d":null,"signal_strength":55,"status":"active","catalyst_type":"positive_news","catalyst_headline":"Citi Remains Bullish on Seagate Technology (STX) – Here’s Why","gap_size":"Medium","outcome_label":"Bounced","summary":"On June 09, 2026, Seagate Technology jumped 3.8% because of positive news. The next day it bounced back another 2.6%!","has_analysis":false},{"ticker":"STLD","name":"Steel Dynamics","sector":"Materials","signal_date":"2026-06-09","gap_up_pct":2.17,"selloff_pct":1.17,"outcome_1d":3.61,"outcome_5d":null,"outcome_10d":null,"signal_strength":38,"status":"active","catalyst_type":"upgrade","catalyst_headline":"Nucor Stock: Is NUE Outperforming the Materials Sector?","gap_size":"Small","outcome_label":"Bounced","summary":"On June 09, 2026, Steel Dynamics jumped 2.2% because an analyst upgraded the stock. The next day it bounced back another 3.6%!","has_analysis":false},{"ticker":"SNDK","name":"Sandisk","sector":"Information Technology","signal_date":"2026-06-09","gap_up_pct":3.56,"selloff_pct":8.68,"outcome_1d":14.27,"outcome_5d":null,"outcome_10d":null,"signal_strength":53,"status":"active","catalyst_type":"positive_news","catalyst_headline":"Stock Market Today: Nasdaq Craters Amid Trump War News; SharkNinja Jumps (Live Coverage)","gap_size":"Medium","outcome_label":"Bounced","summary":"On June 09, 2026, Sandisk jumped 3.6% because of positive news. The next day it bounced back another 14.3%!","has_analysis":false},{"ticker":"SMCI","name":"Supermicro","sector":"Information Technology","signal_date":"2026-06-09","gap_up_pct":2.07,"selloff_pct":9.59,"outcome_1d":-21.33,"outcome_5d":null,"outcome_10d":null,"signal_strength":70,"status":"active","catalyst_type":"positive_news","catalyst_headline":"Supermicro tumbles after-hours on large capital raise to fund AI server surge","gap_size":"Small","outcome_label":"Kept Falling","summary":"On June 09, 2026, Supermicro jumped 2.1% because of positive news. But the next day it fell 21.3%.","has_analysis":false},{"ticker":"SJM","name":"J.M. Smucker Company (The)","sector":"Consumer Staples","signal_date":"2026-06-09","gap_up_pct":5.1,"selloff_pct":2.46,"outcome_1d":3.95,"outcome_5d":null,"outcome_10d":null,"signal_strength":42,"status":"active","catalyst_type":null,"catalyst_headline":null,"gap_size":"Big","outcome_label":"Bounced","summary":"On June 09, 2026, J.M. Smucker Company (The) jumped 5.1% because of big news. The next day it bounced back another 4.0%!","has_analysis":false},{"ticker":"REGN","name":"Regeneron Pharmaceuticals","sector":"Health Care","signal_date":"2026-06-09","gap_up_pct":2.1,"selloff_pct":2.02,"outcome_1d":-0.76,"outcome_5d":null,"outcome_10d":null,"signal_strength":31,"status":"active","catalyst_type":"positive_news","catalyst_headline":"Regeneron’s (REGN) Antibody Therapy Gains WHO Support During Ebola Outbreak","gap_size":"Small","outcome_label":"Faded","summary":"On June 09, 2026, Regeneron Pharmaceuticals jumped 2.1% because of positive news. The next day it stayed about flat.","has_analysis":false},{"ticker":"Q","name":"Qnity Electronics","sector":"Information Technology","signal_date":"2026-06-09","gap_up_pct":1.74,"selloff_pct":4.15,"outcome_1d":3.05,"outcome_5d":null,"outcome_10d":null,"signal_strength":29,"status":"active","catalyst_type":null,"catalyst_headline":null,"gap_size":"Small","outcome_label":"Bounced","summary":"On June 09, 2026, Qnity Electronics jumped 1.7% because of big news. The next day it bounced back another 3.0%!","has_analysis":false},{"ticker":"PWR","name":"Quanta Services","sector":"Industrials","signal_date":"2026-06-09","gap_up_pct":1.52,"selloff_pct":3.35,"outcome_1d":-1.25,"outcome_5d":null,"outcome_10d":null,"signal_strength":38,"status":"active","catalyst_type":"positive_news","catalyst_headline":"Sterling Stock Soared 191% YTD: Should Investors Buy the High Now?","gap_size":"Small","outcome_label":"Kept Falling","summary":"On June 09, 2026, Quanta Services jumped 1.5% because of positive news. But the next day it fell 1.2%.","has_analysis":false},{"ticker":"NXPI","name":"NXP Semiconductors","sector":"Information Technology","signal_date":"2026-06-09","gap_up_pct":2.51,"selloff_pct":4.13,"outcome_1d":1.73,"outcome_5d":null,"outcome_10d":null,"signal_strength":55,"status":"active","catalyst_type":"upgrade","catalyst_headline":"Wells Fargo Maintains Equal-Weight on NXP Semiconductors, Raises Price Target to $305","gap_size":"Small","outcome_label":"Bounced","summary":"On June 09, 2026, NXP Semiconductors jumped 2.5% because an analyst upgraded the stock. The next day it bounced back another 1.7%!","has_analysis":false},{"ticker":"NCLH","name":"Norwegian Cruise Line Holdings","sector":"Consumer Discretionary","signal_date":"2026-06-09","gap_up_pct":1.62,"selloff_pct":1.6,"outcome_1d":0.16,"outcome_5d":null,"outcome_10d":null,"signal_strength":26,"status":"active","catalyst_type":"positive_news","catalyst_headline":"Stocks Erase Early Gains as Chipmakers Turn Lower","gap_size":"Small","outcome_label":"Faded","summary":"On June 09, 2026, Norwegian Cruise Line Holdings jumped 1.6% because of positive news. The next day it stayed about flat.","has_analysis":false},{"ticker":"MU","name":"Micron Technology","sector":"Information Technology","signal_date":"2026-06-09","gap_up_pct":4.1,"selloff_pct":5.38,"outcome_1d":6.41,"outcome_5d":null,"outcome_10d":null,"signal_strength":45,"status":"active","catalyst_type":null,"catalyst_headline":null,"gap_size":"Medium","outcome_label":"Bounced","summary":"On June 09, 2026, Micron Technology jumped 4.1% because of big news. The next day it bounced back another 6.4%!","has_analysis":false},{"ticker":"MRVL","name":"Marvell Technology","sector":"","signal_date":"2026-06-09","gap_up_pct":3.78,"selloff_pct":11.75,"outcome_1d":5.18,"outcome_5d":null,"outcome_10d":null,"signal_strength":44,"status":"active","catalyst_type":null,"catalyst_headline":null,"gap_size":"Medium","outcome_label":"Bounced","summary":"On June 09, 2026, Marvell Technology jumped 3.8% because of big news. The next day it bounced back another 5.2%!","has_analysis":false},{"ticker":"MRNA","name":"Moderna","sector":"Health Care","signal_date":"2026-06-09","gap_up_pct":1.72,"selloff_pct":1.43,"outcome_1d":4.0,"outcome_5d":null,"outcome_10d":null,"signal_strength":36,"status":"active","catalyst_type":"upgrade","catalyst_headline":"B of A Securities Maintains Underperform on Moderna, Raises Price Target to $34","gap_size":"Small","outcome_label":"Bounced","summary":"On June 09, 2026, Moderna jumped 1.7% because an analyst upgraded the stock. The next day it bounced back another 4.0%!","has_analysis":false},{"ticker":"MPWR","name":"Monolithic Power Systems","sector":"Information Technology","signal_date":"2026-06-09","gap_up_pct":2.46,"selloff_pct":5.88,"outcome_1d":3.76,"outcome_5d":null,"outcome_10d":null,"signal_strength":47,"status":"active","catalyst_type":"positive_news","catalyst_headline":"Allegro MicroSystems and Monolithic Power Systems Shares Are Soaring, What You Need To Know","gap_size":"Small","outcome_label":"Bounced","summary":"On June 09, 2026, Monolithic Power Systems jumped 2.5% because of positive news. The next day it bounced back another 3.8%!","has_analysis":false},{"ticker":"MCHP","name":"Microchip Technology","sector":"Information Technology","signal_date":"2026-06-09","gap_up_pct":1.77,"selloff_pct":3.21,"outcome_1d":1.61,"outcome_5d":null,"outcome_10d":null,"signal_strength":35,"status":"active","catalyst_type":"positive_news","catalyst_headline":"Western Digital, Microchip Technology, and Seagate Shares Are Soaring, What You Need To Know","gap_size":"Small","outcome_label":"Bounced","summary":"On June 09, 2026, Microchip Technology jumped 1.8% because of positive news. The next day it bounced back another 1.6%!","has_analysis":false},{"ticker":"LRCX","name":"Lam Research","sector":"Information Technology","signal_date":"2026-06-09","gap_up_pct":3.41,"selloff_pct":6.28,"outcome_1d":10.81,"outcome_5d":null,"outcome_10d":null,"signal_strength":68,"status":"active","catalyst_type":"upgrade","catalyst_headline":"UBS Maintains Buy on Lam Research, Raises Price Target to $375","gap_size":"Medium","outcome_label":"Bounced","summary":"On June 09, 2026, Lam Research jumped 3.4% because an analyst upgraded the stock. The next day it bounced back another 10.8%!","has_analysis":false},{"ticker":"KLAC","name":"KLA Corporation","sector":"Information Technology","signal_date":"2026-06-09","gap_up_pct":2.94,"selloff_pct":5.46,"outcome_1d":12.73,"outcome_5d":null,"outcome_10d":null,"signal_strength":85,"status":"active","catalyst_type":"upgrade","catalyst_headline":"UBS Maintains Neutral on KLA, Raises Price Target to $2180","gap_size":"Small","outcome_label":"Bounced","summary":"On June 09, 2026, KLA Corporation jumped 2.9% because an analyst upgraded the stock. The next day it bounced back another 12.7%!","has_analysis":false},{"ticker":"KEYS","name":"Keysight Technologies","sector":"Information Technology","signal_date":"2026-06-09","gap_up_pct":1.92,"selloff_pct":2.81,"outcome_1d":2.59,"outcome_5d":null,"outcome_10d":null,"signal_strength":24,"status":"active","catalyst_type":null,"catalyst_headline":null,"gap_size":"Small","outcome_label":"Bounced","summary":"On June 09, 2026, Keysight Technologies jumped 1.9% because of big news. The next day it bounced back another 2.6%!","has_analysis":false},{"ticker":"JBL","name":"Jabil","sector":"Information Technology","signal_date":"2026-06-09","gap_up_pct":2.94,"selloff_pct":3.77,"outcome_1d":4.0,"outcome_5d":null,"outcome_10d":null,"signal_strength":54,"status":"active","catalyst_type":"upgrade","catalyst_headline":"UBS Maintains Neutral on Jabil, Raises Price Target to $380","gap_size":"Small","outcome_label":"Bounced","summary":"On June 09, 2026, Jabil jumped 2.9% because an analyst upgraded the stock. The next day it bounced back another 4.0%!","has_analysis":false},{"ticker":"INTC","name":"Intel","sector":"Information Technology","signal_date":"2026-06-09","gap_up_pct":2.47,"selloff_pct":5.33,"outcome_1d":8.38,"outcome_5d":null,"outcome_10d":null,"signal_strength":37,"status":"active","catalyst_type":null,"catalyst_headline":null,"gap_size":"Small","outcome_label":"Bounced","summary":"On June 09, 2026, Intel jumped 2.5% because of big news. The next day it bounced back another 8.4%!","has_analysis":false},{"ticker":"GS","name":"Goldman Sachs","sector":"Financials","signal_date":"2026-06-09","gap_up_pct":1.61,"selloff_pct":3.04,"outcome_1d":0.35,"outcome_5d":null,"outcome_10d":null,"signal_strength":23,"status":"active","catalyst_type":null,"catalyst_headline":null,"gap_size":"Small","outcome_label":"Faded","summary":"On June 09, 2026, Goldman Sachs jumped 1.6% because of big news. The next day it stayed about flat.","has_analysis":false},{"ticker":"GLW","name":"Corning Inc.","sector":"Information Technology","signal_date":"2026-06-09","gap_up_pct":1.53,"selloff_pct":8.65,"outcome_1d":1.5,"outcome_5d":null,"outcome_10d":null,"signal_strength":43,"status":"active","catalyst_type":"positive_news","catalyst_headline":"Amazon sparks major surge in overlooked 175-year-old tech stock","gap_size":"Small","outcome_label":"Bounced","summary":"On June 09, 2026, Corning Inc. jumped 1.5% because of positive news. The next day it bounced back another 1.5%!","has_analysis":false},{"ticker":"FCX","name":"Freeport-McMoRan","sector":"Materials","signal_date":"2026-06-09","gap_up_pct":1.97,"selloff_pct":3.28,"outcome_1d":3.25,"outcome_5d":null,"outcome_10d":null,"signal_strength":38,"status":"active","catalyst_type":"positive_news","catalyst_headline":"Copper Price Rally Fades As Trump Tariff Bets Lose Steam; Mining Stocks Waver","gap_size":"Small","outcome_label":"Bounced","summary":"On June 09, 2026, Freeport-McMoRan jumped 2.0% because of positive news. The next day it bounced back another 3.2%!","has_analysis":false},{"ticker":"EL","name":"Estée Lauder Companies (The)","sector":"Consumer Staples","signal_date":"2026-06-09","gap_up_pct":1.5,"selloff_pct":1.7,"outcome_1d":1.69,"outcome_5d":null,"outcome_10d":null,"signal_strength":16,"status":"active","catalyst_type":null,"catalyst_headline":null,"gap_size":"Small","outcome_label":"Bounced","summary":"On June 09, 2026, Estée Lauder Companies (The) jumped 1.5% because of big news. The next day it bounced back another 1.7%!","has_analysis":false},{"ticker":"DECK","name":"Deckers Brands","sector":"Consumer Discretionary","signal_date":"2026-06-09","gap_up_pct":1.5,"selloff_pct":2.19,"outcome_1d":1.68,"outcome_5d":null,"outcome_10d":null,"signal_strength":43,"status":"active","catalyst_type":"earnings_beat","catalyst_headline":"Deckers (DECK) Exceeds Market Returns: Some Facts to Consider","gap_size":"Small","outcome_label":"Bounced","summary":"On June 09, 2026, Deckers Brands jumped 1.5% because it beat earnings expectations. The next day it bounced back another 1.7%!","has_analysis":false},{"ticker":"CVNA","name":"Carvana","sector":"Consumer Discretionary","signal_date":"2026-06-09","gap_up_pct":2.52,"selloff_pct":5.36,"outcome_1d":-2.57,"outcome_5d":null,"outcome_10d":null,"signal_strength":38,"status":"active","catalyst_type":null,"catalyst_headline":null,"gap_size":"Small","outcome_label":"Kept Falling","summary":"On June 09, 2026, Carvana jumped 2.5% because of big news. But the next day it fell 2.6%.","has_analysis":false},{"ticker":"CCL","name":"Carnival","sector":"Consumer Discretionary","signal_date":"2026-06-09","gap_up_pct":1.93,"selloff_pct":1.7,"outcome_1d":1.41,"outcome_5d":null,"outcome_10d":null,"signal_strength":28,"status":"active","catalyst_type":"positive_news","catalyst_headline":"Stocks Erase Early Gains as Chipmakers Turn Lower","gap_size":"Small","outcome_label":"Bounced","summary":"On June 09, 2026, Carnival jumped 1.9% because of positive news. The next day it bounced back another 1.4%!","has_analysis":false},{"ticker":"ASML","name":"ASML Holding","sector":"","signal_date":"2026-06-09","gap_up_pct":1.58,"selloff_pct":2.91,"outcome_1d":6.85,"outcome_5d":null,"outcome_10d":null,"signal_strength":39,"status":"active","catalyst_type":"positive_news","catalyst_headline":"BofA Remains Bullish on ASML Holding (ASML) – Here’s Why","gap_size":"Small","outcome_label":"Bounced","summary":"On June 09, 2026, ASML Holding jumped 1.6% because of positive news. The next day it bounced back another 6.8%!","has_analysis":false},{"ticker":"ARM","name":"Arm Holdings","sector":"","signal_date":"2026-06-09","gap_up_pct":4.58,"selloff_pct":10.4,"outcome_1d":5.35,"outcome_5d":null,"outcome_10d":null,"signal_strength":58,"status":"active","catalyst_type":"positive_news","catalyst_headline":"Stocks Erase Early Gains as Chipmakers Turn Lower","gap_size":"Medium","outcome_label":"Bounced","summary":"On June 09, 2026, Arm Holdings jumped 4.6% because of positive news. The next day it bounced back another 5.3%!","has_analysis":false},{"ticker":"AMD","name":"Advanced Micro Devices","sector":"Information Technology","signal_date":"2026-06-09","gap_up_pct":2.53,"selloff_pct":5.84,"outcome_1d":2.72,"outcome_5d":null,"outcome_10d":null,"signal_strength":38,"status":"active","catalyst_type":null,"catalyst_headline":null,"gap_size":"Small","outcome_label":"Bounced","summary":"On June 09, 2026, Advanced Micro Devices jumped 2.5% because of big news. The next day it bounced back another 2.7%!","has_analysis":false},{"ticker":"AMAT","name":"Applied Materials","sector":"Information Technology","signal_date":"2026-06-09","gap_up_pct":1.94,"selloff_pct":5.09,"outcome_1d":10.7,"outcome_5d":null,"outcome_10d":null,"signal_strength":39,"status":"active","catalyst_type":null,"catalyst_headline":null,"gap_size":"Small","outcome_label":"Bounced","summary":"On June 09, 2026, Applied Materials jumped 1.9% because of big news. The next day it bounced back another 10.7%!","has_analysis":false},{"ticker":"ALNY","name":"Alnylam Pharmaceuticals","sector":"","signal_date":"2026-06-09","gap_up_pct":1.76,"selloff_pct":1.7,"outcome_1d":-2.79,"outcome_5d":null,"outcome_10d":null,"signal_strength":17,"status":"active","catalyst_type":null,"catalyst_headline":null,"gap_size":"Small","outcome_label":"Kept Falling","summary":"On June 09, 2026, Alnylam Pharmaceuticals jumped 1.8% because of big news. But the next day it fell 2.8%.","has_analysis":false},{"ticker":"ALB","name":"Albemarle Corporation","sector":"Materials","signal_date":"2026-06-09","gap_up_pct":3.74,"selloff_pct":2.48,"outcome_1d":4.1,"outcome_5d":null,"outcome_10d":null,"signal_strength":41,"status":"active","catalyst_type":"positive_news","catalyst_headline":"AU Stock Soars 98% in a Year: What's Aiding Its Performance?","gap_size":"Medium","outcome_label":"Bounced","summary":"On June 09, 2026, Albemarle Corporation jumped 3.7% because of positive news. The next day it bounced back another 4.1%!","has_analysis":false},{"ticker":"ADI","name":"Analog Devices","sector":"Information Technology","signal_date":"2026-06-09","gap_up_pct":2.0,"selloff_pct":2.4,"outcome_1d":1.86,"outcome_5d":null,"outcome_10d":null,"signal_strength":32,"status":"active","catalyst_type":"positive_news","catalyst_headline":"Stocks Rally as Buyers Return After AI-Led Selloff","gap_size":"Small","outcome_label":"Bounced","summary":"On June 09, 2026, Analog Devices jumped 2.0% because of positive news. The next day it bounced back another 1.9%!","has_analysis":false},{"ticker":"WDC","name":"Western Digital","sector":"Information Technology","signal_date":"2026-06-08","gap_up_pct":5.57,"selloff_pct":2.46,"outcome_1d":-6.99,"outcome_5d":null,"outcome_10d":null,"signal_strength":48,"status":"active","catalyst_type":"positive_news","catalyst_headline":"Broader Market Settles Higher as Chipmakers Rally","gap_size":"Big","outcome_label":"Kept Falling","summary":"On June 08, 2026, Western Digital jumped 5.6% because of positive news. But the next day it fell 7.0%.","has_analysis":false},{"ticker":"VRT","name":"Vertiv","sector":"Industrials","signal_date":"2026-06-08","gap_up_pct":2.91,"selloff_pct":3.23,"outcome_1d":-6.52,"outcome_5d":null,"outcome_10d":null,"signal_strength":62,"status":"active","catalyst_type":"upgrade","catalyst_headline":"Is Vertiv Stock Outperforming the S&P 500?","gap_size":"Small","outcome_label":"Kept Falling","summary":"On June 08, 2026, Vertiv jumped 2.9% because an analyst upgraded the stock. But the next day it fell 6.5%.","has_analysis":false},{"ticker":"VLO","name":"Valero Energy","sector":"Energy","signal_date":"2026-06-08","gap_up_pct":1.63,"selloff_pct":2.13,"outcome_1d":-0.15,"outcome_5d":null,"outcome_10d":null,"signal_strength":44,"status":"active","catalyst_type":"earnings_beat","catalyst_headline":"A Look At Valero Energy (VLO) Valuation As Strong Earnings Hopes Clash With Insider Selling Concerns","gap_size":"Small","outcome_label":"Faded","summary":"On June 08, 2026, Valero Energy jumped 1.6% because it beat earnings expectations. The next day it stayed about flat.","has_analysis":false},{"ticker":"TXN","name":"Texas Instruments","sector":"Information Technology","signal_date":"2026-06-08","gap_up_pct":3.04,"selloff_pct":1.58,"outcome_1d":-3.06,"outcome_5d":null,"outcome_10d":null,"signal_strength":34,"status":"active","catalyst_type":"positive_news","catalyst_headline":"Broader Market Settles Higher as Chipmakers Rally","gap_size":"Medium","outcome_label":"Kept Falling","summary":"On June 08, 2026, Texas Instruments jumped 3.0% because of positive news. But the next day it fell 3.1%.","has_analysis":false},{"ticker":"TER","name":"Teradyne","sector":"Information Technology","signal_date":"2026-06-08","gap_up_pct":5.56,"selloff_pct":1.44,"outcome_1d":-7.23,"outcome_5d":null,"outcome_10d":null,"signal_strength":44,"status":"active","catalyst_type":"positive_news","catalyst_headline":"Micron Rallies, Nasdaq 100 Rebounds As Trump Calls For Immediate Iran-Israel Ceasefire","gap_size":"Big","outcome_label":"Kept Falling","summary":"On June 08, 2026, Teradyne jumped 5.6% because of positive news. But the next day it fell 7.2%.","has_analysis":false},{"ticker":"SWKS","name":"Skyworks Solutions","sector":"Information Technology","signal_date":"2026-06-08","gap_up_pct":2.41,"selloff_pct":4.46,"outcome_1d":-6.74,"outcome_5d":null,"outcome_10d":null,"signal_strength":36,"status":"active","catalyst_type":null,"catalyst_headline":null,"gap_size":"Small","outcome_label":"Kept Falling","summary":"On June 08, 2026, Skyworks Solutions jumped 2.4% because of big news. But the next day it fell 6.7%.","has_analysis":false},{"ticker":"STX","name":"Seagate Technology","sector":"Information Technology","signal_date":"2026-06-08","gap_up_pct":4.16,"selloff_pct":2.03,"outcome_1d":-6.93,"outcome_5d":null,"outcome_10d":null,"signal_strength":51,"status":"active","catalyst_type":"upgrade","catalyst_headline":"Mizuho Maintains Outperform on Seagate Technology Hldgs, Raises Price Target to $1090","gap_size":"Medium","outcome_label":"Kept Falling","summary":"On June 08, 2026, Seagate Technology jumped 4.2% because an analyst upgraded the stock. But the next day it fell 6.9%.","has_analysis":false},{"ticker":"SNDK","name":"Sandisk","sector":"Information Technology","signal_date":"2026-06-08","gap_up_pct":4.79,"selloff_pct":3.13,"outcome_1d":0.07,"outcome_5d":null,"outcome_10d":null,"signal_strength":64,"status":"active","catalyst_type":"upgrade","catalyst_headline":"SanDisk wins big BofA target upgrade as new supply deals shore up earnings visibility","gap_size":"Medium","outcome_label":"Faded","summary":"On June 08, 2026, Sandisk jumped 4.8% because an analyst upgraded the stock. The next day it stayed about flat.","has_analysis":false},{"ticker":"SMCI","name":"Supermicro","sector":"Information Technology","signal_date":"2026-06-08","gap_up_pct":5.21,"selloff_pct":1.68,"outcome_1d":-33.46,"outcome_5d":null,"outcome_10d":null,"signal_strength":56,"status":"active","catalyst_type":"upgrade","catalyst_headline":"Is Super Micro Computer Stock Outperforming the S&P 500?","gap_size":"Big","outcome_label":"Kept Falling","summary":"On June 08, 2026, Supermicro jumped 5.2% because an analyst upgraded the stock. But the next day it fell 33.5%.","has_analysis":false},{"ticker":"SHOP","name":"Shopify","sector":"","signal_date":"2026-06-08","gap_up_pct":3.69,"selloff_pct":3.57,"outcome_1d":-2.33,"outcome_5d":null,"outcome_10d":null,"signal_strength":61,"status":"active","catalyst_type":"earnings_beat","catalyst_headline":"Shopify's GMV Tops $100B Again: What Investors Should Know","gap_size":"Medium","outcome_label":"Kept Falling","summary":"On June 08, 2026, Shopify jumped 3.7% because it beat earnings expectations. But the next day it fell 2.3%.","has_analysis":false},{"ticker":"SATS","name":"EchoStar","sector":"Communication Services","signal_date":"2026-06-08","gap_up_pct":1.73,"selloff_pct":1.72,"outcome_1d":-1.18,"outcome_5d":null,"outcome_10d":null,"signal_strength":42,"status":"active","catalyst_type":"earnings_beat","catalyst_headline":"The Beaten-Down Stock About to Cash a $19.6 Billion Check From Elon Musk","gap_size":"Small","outcome_label":"Kept Falling","summary":"On June 08, 2026, EchoStar jumped 1.7% because it beat earnings expectations. But the next day it fell 1.2%.","has_analysis":false},{"ticker":"RVTY","name":"Revvity","sector":"Health Care","signal_date":"2026-06-08","gap_up_pct":1.77,"selloff_pct":2.16,"outcome_1d":0.99,"outcome_5d":null,"outcome_10d":null,"signal_strength":20,"status":"active","catalyst_type":null,"catalyst_headline":null,"gap_size":"Small","outcome_label":"Faded","summary":"On June 08, 2026, Revvity jumped 1.8% because of big news. The next day it stayed about flat.","has_analysis":false}]}