{"total":575,"page":4,"per_page":50,"total_pages":12,"filters":{"gap_sizes":["Small","Medium","Big","Huge"],"outcomes":["Bounced","Faded","Kept Falling"],"sectors":["","Communication Services","Consumer Discretionary","Consumer Staples","Energy","Financials","Health Care","Industrials","Information Technology","Materials","Real Estate","Utilities"]},"events":[{"ticker":"LH","name":"Labcorp","sector":"Health Care","signal_date":"2026-05-01","gap_up_pct":1.73,"selloff_pct":2.3,"outcome_1d":0.51,"outcome_5d":null,"outcome_10d":null,"signal_strength":51,"status":"active","catalyst_type":"earnings_beat","catalyst_headline":"LH Stock Up in Pre-Market on Q1 Earnings & Revenue Beat, 2026 View Up","gap_size":"Small","outcome_label":"Faded","summary":"On May 01, 2026, Labcorp jumped 1.7% because it beat earnings expectations. The next day it stayed about flat.","has_analysis":false},{"ticker":"IT","name":"Gartner","sector":"Information Technology","signal_date":"2026-05-01","gap_up_pct":2.03,"selloff_pct":5.03,"outcome_1d":2.11,"outcome_5d":null,"outcome_10d":null,"signal_strength":45,"status":"active","catalyst_type":null,"catalyst_headline":null,"gap_size":"Small","outcome_label":"Bounced","summary":"On May 01, 2026, Gartner jumped 2.0% because of big news. The next day it bounced back another 2.1%!","has_analysis":false},{"ticker":"INTU","name":"Intuit","sector":"Information Technology","signal_date":"2026-05-01","gap_up_pct":3.53,"selloff_pct":2.3,"outcome_1d":-0.18,"outcome_5d":null,"outcome_10d":null,"signal_strength":29,"status":"active","catalyst_type":null,"catalyst_headline":null,"gap_size":"Medium","outcome_label":"Faded","summary":"On May 01, 2026, Intuit jumped 3.5% because of big news. The next day it stayed about flat.","has_analysis":false},{"ticker":"IBM","name":"IBM","sector":"Information Technology","signal_date":"2026-05-01","gap_up_pct":1.55,"selloff_pct":1.59,"outcome_1d":-1.37,"outcome_5d":null,"outcome_10d":null,"signal_strength":36,"status":"active","catalyst_type":"upgrade","catalyst_headline":"Ferrari Ties AI Fan Experience And F1 Upgrades To Brand Power","gap_size":"Small","outcome_label":"Kept Falling","summary":"On May 01, 2026, IBM jumped 1.6% because an analyst upgraded the stock. But the next day it fell 1.4%.","has_analysis":false},{"ticker":"GEN","name":"Gen Digital","sector":"Information Technology","signal_date":"2026-05-01","gap_up_pct":2.18,"selloff_pct":2.66,"outcome_1d":1.76,"outcome_5d":null,"outcome_10d":null,"signal_strength":24,"status":"active","catalyst_type":null,"catalyst_headline":null,"gap_size":"Small","outcome_label":"Bounced","summary":"On May 01, 2026, Gen Digital jumped 2.2% because of big news. The next day it bounced back another 1.8%!","has_analysis":false},{"ticker":"GDDY","name":"GoDaddy","sector":"Information Technology","signal_date":"2026-05-01","gap_up_pct":8.3,"selloff_pct":7.69,"outcome_1d":0.84,"outcome_5d":null,"outcome_10d":null,"signal_strength":75,"status":"active","catalyst_type":"earnings_beat","catalyst_headline":"GDDY Q1 Earnings beat, Revenues Rise Y/Y on Strong Airo Execution","gap_size":"Big","outcome_label":"Faded","summary":"On May 01, 2026, GoDaddy jumped 8.3% because it beat earnings expectations. The next day it stayed about flat.","has_analysis":false},{"ticker":"FTV","name":"Fortive","sector":"Industrials","signal_date":"2026-05-01","gap_up_pct":1.51,"selloff_pct":2.99,"outcome_1d":2.81,"outcome_5d":null,"outcome_10d":null,"signal_strength":47,"status":"active","catalyst_type":"earnings_beat","catalyst_headline":"Fortive Q1 Earnings & Sales Beat Estimates, Up Y/Y, Stock Rises","gap_size":"Small","outcome_label":"Bounced","summary":"On May 01, 2026, Fortive jumped 1.5% because it beat earnings expectations. The next day it bounced back another 2.8%!","has_analysis":false},{"ticker":"FICO","name":"Fair Isaac","sector":"Information Technology","signal_date":"2026-05-01","gap_up_pct":2.34,"selloff_pct":2.59,"outcome_1d":2.97,"outcome_5d":null,"outcome_10d":null,"signal_strength":45,"status":"active","catalyst_type":"upgrade","catalyst_headline":"Wells Fargo Maintains Overweight on Fair Isaac, Lowers Price Target to $1400","gap_size":"Small","outcome_label":"Bounced","summary":"On May 01, 2026, Fair Isaac jumped 2.3% because an analyst upgraded the stock. The next day it bounced back another 3.0%!","has_analysis":false},{"ticker":"FDS","name":"FactSet","sector":"Financials","signal_date":"2026-05-01","gap_up_pct":1.79,"selloff_pct":3.38,"outcome_1d":-3.59,"outcome_5d":null,"outcome_10d":null,"signal_strength":26,"status":"active","catalyst_type":null,"catalyst_headline":null,"gap_size":"Small","outcome_label":"Kept Falling","summary":"On May 01, 2026, FactSet jumped 1.8% because of big news. But the next day it fell 3.6%.","has_analysis":false},{"ticker":"EL","name":"Estée Lauder Companies (The)","sector":"Consumer Staples","signal_date":"2026-05-01","gap_up_pct":12.11,"selloff_pct":8.24,"outcome_1d":4.48,"outcome_5d":null,"outcome_10d":null,"signal_strength":80,"status":"active","catalyst_type":"earnings_beat","catalyst_headline":"Estée Lauder beats estimates, raises guidance","gap_size":"Huge","outcome_label":"Bounced","summary":"On May 01, 2026, Estée Lauder Companies (The) jumped 12.1% because it beat earnings expectations. The next day it bounced back another 4.5%!","has_analysis":false},{"ticker":"DXCM","name":"Dexcom","sector":"Health Care","signal_date":"2026-05-01","gap_up_pct":2.42,"selloff_pct":2.39,"outcome_1d":-3.05,"outcome_5d":null,"outcome_10d":null,"signal_strength":51,"status":"active","catalyst_type":"earnings_beat","catalyst_headline":"DexCom Stock Up on Q1 Earnings & Revenues Beat, Margins Rise","gap_size":"Small","outcome_label":"Kept Falling","summary":"On May 01, 2026, Dexcom jumped 2.4% because it beat earnings expectations. But the next day it fell 3.0%.","has_analysis":false},{"ticker":"DDOG","name":"Datadog","sector":"Information Technology","signal_date":"2026-05-01","gap_up_pct":4.77,"selloff_pct":1.56,"outcome_1d":3.7,"outcome_5d":null,"outcome_10d":null,"signal_strength":37,"status":"active","catalyst_type":null,"catalyst_headline":null,"gap_size":"Medium","outcome_label":"Bounced","summary":"On May 01, 2026, Datadog jumped 4.8% because of big news. The next day it bounced back another 3.7%!","has_analysis":false},{"ticker":"CTSH","name":"Cognizant","sector":"Information Technology","signal_date":"2026-05-01","gap_up_pct":2.53,"selloff_pct":4.06,"outcome_1d":-1.07,"outcome_5d":null,"outcome_10d":null,"signal_strength":58,"status":"active","catalyst_type":"earnings_beat","catalyst_headline":"Cognizant Q1 Earnings Beat Estimates: Will Raised View Aid Shares?","gap_size":"Small","outcome_label":"Kept Falling","summary":"On May 01, 2026, Cognizant jumped 2.5% because it beat earnings expectations. But the next day it fell 1.1%.","has_analysis":false},{"ticker":"CSGP","name":"CoStar Group","sector":"Real Estate","signal_date":"2026-05-01","gap_up_pct":1.94,"selloff_pct":3.8,"outcome_1d":0.52,"outcome_5d":null,"outcome_10d":null,"signal_strength":39,"status":"active","catalyst_type":"positive_news","catalyst_headline":"CoStar Group Inc. (CSGP): Bares Capital Is Bullish on This Stock","gap_size":"Small","outcome_label":"Faded","summary":"On May 01, 2026, CoStar Group jumped 1.9% because of positive news. The next day it stayed about flat.","has_analysis":false},{"ticker":"CRM","name":"Salesforce","sector":"Information Technology","signal_date":"2026-05-01","gap_up_pct":3.21,"selloff_pct":1.19,"outcome_1d":1.72,"outcome_5d":null,"outcome_10d":null,"signal_strength":32,"status":"active","catalyst_type":"positive_news","catalyst_headline":"Nasdaq, S&P 500 Log Record Finish, Extend Streak of Weekly Gains","gap_size":"Medium","outcome_label":"Bounced","summary":"On May 01, 2026, Salesforce jumped 3.2% because of positive news. The next day it bounced back another 1.7%!","has_analysis":false},{"ticker":"COIN","name":"Coinbase","sector":"Financials","signal_date":"2026-05-01","gap_up_pct":2.19,"selloff_pct":1.68,"outcome_1d":3.4,"outcome_5d":null,"outcome_10d":null,"signal_strength":31,"status":"active","catalyst_type":"positive_news","catalyst_headline":"Coinbase says deal reached on key provision of crypto bill","gap_size":"Small","outcome_label":"Bounced","summary":"On May 01, 2026, Coinbase jumped 2.2% because of positive news. The next day it bounced back another 3.4%!","has_analysis":false},{"ticker":"CL","name":"Colgate-Palmolive","sector":"Consumer Staples","signal_date":"2026-05-01","gap_up_pct":3.29,"selloff_pct":2.33,"outcome_1d":-1.07,"outcome_5d":null,"outcome_10d":null,"signal_strength":53,"status":"active","catalyst_type":"earnings_beat","catalyst_headline":"Colgate-Palmolive Sales Beat As Volume Growth Hits 13 Times Expectations","gap_size":"Medium","outcome_label":"Kept Falling","summary":"On May 01, 2026, Colgate-Palmolive jumped 3.3% because it beat earnings expectations. But the next day it fell 1.1%.","has_analysis":false},{"ticker":"CHRW","name":"C.H. Robinson","sector":"Industrials","signal_date":"2026-05-01","gap_up_pct":1.86,"selloff_pct":4.51,"outcome_1d":-5.74,"outcome_5d":null,"outcome_10d":null,"signal_strength":73,"status":"active","catalyst_type":"upgrade","catalyst_headline":"Stifel Maintains Buy on C.H. Robinson Worldwide, Raises Price Target to $207","gap_size":"Small","outcome_label":"Kept Falling","summary":"On May 01, 2026, C.H. Robinson jumped 1.9% because an analyst upgraded the stock. But the next day it fell 5.7%.","has_analysis":false},{"ticker":"CAH","name":"Cardinal Health","sector":"Health Care","signal_date":"2026-05-01","gap_up_pct":1.81,"selloff_pct":0.75,"outcome_1d":0.9,"outcome_5d":null,"outcome_10d":null,"signal_strength":42,"status":"active","catalyst_type":"earnings_beat","catalyst_headline":"Cardinal Health (CAH) Is Down 5.8% After Mixed Q3 2026 Beat And Higher Earnings Guidance","gap_size":"Small","outcome_label":"Faded","summary":"On May 01, 2026, Cardinal Health jumped 1.8% because it beat earnings expectations. The next day it stayed about flat.","has_analysis":false},{"ticker":"BR","name":"Broadridge Financial Solutions","sector":"Industrials","signal_date":"2026-05-01","gap_up_pct":2.44,"selloff_pct":2.49,"outcome_1d":-2.0,"outcome_5d":null,"outcome_10d":null,"signal_strength":56,"status":"active","catalyst_type":"earnings_beat","catalyst_headline":"Broadridge Tops Q3 Estimates as Deal Delays Cloud Near-Term Outlook, RBC Says","gap_size":"Small","outcome_label":"Kept Falling","summary":"On May 01, 2026, Broadridge Financial Solutions jumped 2.4% because it beat earnings expectations. But the next day it fell 2.0%.","has_analysis":false},{"ticker":"AXON","name":"Axon Enterprise","sector":"Industrials","signal_date":"2026-05-01","gap_up_pct":1.74,"selloff_pct":2.81,"outcome_1d":-5.4,"outcome_5d":null,"outcome_10d":null,"signal_strength":23,"status":"active","catalyst_type":null,"catalyst_headline":null,"gap_size":"Small","outcome_label":"Kept Falling","summary":"On May 01, 2026, Axon Enterprise jumped 1.7% because of big news. But the next day it fell 5.4%.","has_analysis":false},{"ticker":"ARES","name":"Ares Management","sector":"Financials","signal_date":"2026-05-01","gap_up_pct":2.3,"selloff_pct":4.66,"outcome_1d":3.33,"outcome_5d":null,"outcome_10d":null,"signal_strength":35,"status":"active","catalyst_type":null,"catalyst_headline":null,"gap_size":"Small","outcome_label":"Bounced","summary":"On May 01, 2026, Ares Management jumped 2.3% because of big news. The next day it bounced back another 3.3%!","has_analysis":false},{"ticker":"APP","name":"AppLovin","sector":"Information Technology","signal_date":"2026-05-01","gap_up_pct":2.85,"selloff_pct":2.07,"outcome_1d":3.94,"outcome_5d":null,"outcome_10d":null,"signal_strength":25,"status":"active","catalyst_type":null,"catalyst_headline":null,"gap_size":"Small","outcome_label":"Bounced","summary":"On May 01, 2026, AppLovin jumped 2.9% because of big news. The next day it bounced back another 3.9%!","has_analysis":false},{"ticker":"AON","name":"Aon plc","sector":"Financials","signal_date":"2026-05-01","gap_up_pct":4.77,"selloff_pct":4.6,"outcome_1d":0.98,"outcome_5d":null,"outcome_10d":null,"signal_strength":72,"status":"active","catalyst_type":"earnings_beat","catalyst_headline":"Aon Q1 Earnings Beat Estimates on Strong Risk Capital Growth","gap_size":"Medium","outcome_label":"Faded","summary":"On May 01, 2026, Aon plc jumped 4.8% because it beat earnings expectations. The next day it stayed about flat.","has_analysis":false},{"ticker":"AJG","name":"Arthur J. Gallagher & Co.","sector":"Financials","signal_date":"2026-05-01","gap_up_pct":5.14,"selloff_pct":4.92,"outcome_1d":-1.11,"outcome_5d":null,"outcome_10d":null,"signal_strength":75,"status":"active","catalyst_type":"earnings_beat","catalyst_headline":"Arthur J. Gallagher Q1 Earnings Beat, Commissions and Fees Rise Y/Y","gap_size":"Big","outcome_label":"Kept Falling","summary":"On May 01, 2026, Arthur J. Gallagher & Co. jumped 5.1% because it beat earnings expectations. But the next day it fell 1.1%.","has_analysis":false},{"ticker":"AIG","name":"American International Group","sector":"Financials","signal_date":"2026-05-01","gap_up_pct":4.26,"selloff_pct":1.25,"outcome_1d":-0.38,"outcome_5d":null,"outcome_10d":null,"signal_strength":54,"status":"active","catalyst_type":"earnings_beat","catalyst_headline":"Aon Q1 Earnings Beat Estimates on Strong Risk Capital Growth","gap_size":"Medium","outcome_label":"Faded","summary":"On May 01, 2026, American International Group jumped 4.3% because it beat earnings expectations. The next day it stayed about flat.","has_analysis":false},{"ticker":"ADSK","name":"Autodesk","sector":"Information Technology","signal_date":"2026-05-01","gap_up_pct":2.06,"selloff_pct":1.02,"outcome_1d":2.08,"outcome_5d":null,"outcome_10d":null,"signal_strength":15,"status":"active","catalyst_type":null,"catalyst_headline":null,"gap_size":"Small","outcome_label":"Bounced","summary":"On May 01, 2026, Autodesk jumped 2.1% because of big news. The next day it bounced back another 2.1%!","has_analysis":false},{"ticker":"ADBE","name":"Adobe Inc.","sector":"Information Technology","signal_date":"2026-05-01","gap_up_pct":2.4,"selloff_pct":1.12,"outcome_1d":1.96,"outcome_5d":null,"outcome_10d":null,"signal_strength":28,"status":"active","catalyst_type":"positive_news","catalyst_headline":"E-Commerce Today - CoastalPay Resolve Partnership Enhances B2B Payment Flexibility","gap_size":"Small","outcome_label":"Bounced","summary":"On May 01, 2026, Adobe Inc. jumped 2.4% because of positive news. The next day it bounced back another 2.0%!","has_analysis":false},{"ticker":"AAPL","name":"Apple Inc.","sector":"Information Technology","signal_date":"2026-05-01","gap_up_pct":2.77,"selloff_pct":2.47,"outcome_1d":1.44,"outcome_5d":null,"outcome_10d":null,"signal_strength":36,"status":"active","catalyst_type":"positive_news","catalyst_headline":"Replit’s Amjad Masad on the Cursor deal, fighting Apple, and why he’d rather not sell","gap_size":"Small","outcome_label":"Bounced","summary":"On May 01, 2026, Apple Inc. jumped 2.8% because of positive news. The next day it bounced back another 1.4%!","has_analysis":false},{"ticker":"CARR","name":"Carrier Global","sector":"Industrials","signal_date":"2026-04-30","gap_up_pct":4.0,"selloff_pct":2.71,"outcome_1d":-1.91,"outcome_5d":null,"outcome_10d":null,"signal_strength":59,"status":"active","catalyst_type":"earnings_beat","catalyst_headline":"Carrier beats quarterly profit estimates on strong data center demand","gap_size":"Medium","outcome_label":"Kept Falling","summary":"On April 30, 2026, Carrier Global jumped 4.0% because it beat earnings expectations. But the next day it fell 1.9%.","has_analysis":false},{"ticker":"VST","name":"Vistra Corp.","sector":"Utilities","signal_date":"2026-04-30","gap_up_pct":1.63,"selloff_pct":1.12,"outcome_1d":1.91,"outcome_5d":null,"outcome_10d":null,"signal_strength":34,"status":"active","catalyst_type":"upgrade","catalyst_headline":"JP Morgan Maintains Overweight on Vistra, Lowers Price Target to $231","gap_size":"Small","outcome_label":"Bounced","summary":"On April 30, 2026, Vistra Corp. jumped 1.6% because an analyst upgraded the stock. The next day it bounced back another 1.9%!","has_analysis":false},{"ticker":"UDR","name":"UDR, Inc.","sector":"Real Estate","signal_date":"2026-04-30","gap_up_pct":1.88,"selloff_pct":1.41,"outcome_1d":0.06,"outcome_5d":null,"outcome_10d":null,"signal_strength":42,"status":"active","catalyst_type":"earnings_beat","catalyst_headline":"UDR (NYSE:UDR) Earnings Beat Sends Shares Higher, But Guidance Remains Muted","gap_size":"Small","outcome_label":"Faded","summary":"On April 30, 2026, UDR, Inc. jumped 1.9% because it beat earnings expectations. The next day it stayed about flat.","has_analysis":false},{"ticker":"UAL","name":"United Airlines Holdings","sector":"Industrials","signal_date":"2026-04-30","gap_up_pct":1.58,"selloff_pct":1.01,"outcome_1d":0.08,"outcome_5d":null,"outcome_10d":null,"signal_strength":23,"status":"active","catalyst_type":"positive_news","catalyst_headline":"Is Wall Street Bullish or Bearish on United Airlines Stock?","gap_size":"Small","outcome_label":"Faded","summary":"On April 30, 2026, United Airlines Holdings jumped 1.6% because of positive news. The next day it stayed about flat.","has_analysis":false},{"ticker":"TXT","name":"Textron","sector":"Industrials","signal_date":"2026-04-30","gap_up_pct":8.19,"selloff_pct":1.69,"outcome_1d":-5.23,"outcome_5d":null,"outcome_10d":null,"signal_strength":64,"status":"active","catalyst_type":"earnings_beat","catalyst_headline":"Textron tops quarterly results, plans industrial unit separation","gap_size":"Big","outcome_label":"Kept Falling","summary":"On April 30, 2026, Textron jumped 8.2% because it beat earnings expectations. But the next day it fell 5.2%.","has_analysis":false},{"ticker":"TT","name":"Trane Technologies","sector":"Industrials","signal_date":"2026-04-30","gap_up_pct":2.51,"selloff_pct":2.17,"outcome_1d":-1.23,"outcome_5d":null,"outcome_10d":null,"signal_strength":48,"status":"active","catalyst_type":"earnings_beat","catalyst_headline":"Trane Q1 Earnings Beat Estimates on Strong Bookings, Backlog","gap_size":"Small","outcome_label":"Kept Falling","summary":"On April 30, 2026, Trane Technologies jumped 2.5% because it beat earnings expectations. But the next day it fell 1.2%.","has_analysis":false},{"ticker":"TER","name":"Teradyne","sector":"Information Technology","signal_date":"2026-04-30","gap_up_pct":6.75,"selloff_pct":2.85,"outcome_1d":-1.76,"outcome_5d":null,"outcome_10d":null,"signal_strength":59,"status":"active","catalyst_type":"upgrade","catalyst_headline":"JP Morgan Upgrades Teradyne to Overweight, Maintains Price Target to $400","gap_size":"Big","outcome_label":"Kept Falling","summary":"On April 30, 2026, Teradyne jumped 6.8% because an analyst upgraded the stock. But the next day it fell 1.8%.","has_analysis":false},{"ticker":"TDY","name":"Teledyne Technologies","sector":"Information Technology","signal_date":"2026-04-30","gap_up_pct":1.7,"selloff_pct":1.25,"outcome_1d":-1.28,"outcome_5d":null,"outcome_10d":null,"signal_strength":40,"status":"active","catalyst_type":"earnings_beat","catalyst_headline":"Woodward's Q2 Earnings & Revenues Beat Estimates, Increase Y/Y","gap_size":"Small","outcome_label":"Kept Falling","summary":"On April 30, 2026, Teledyne Technologies jumped 1.7% because it beat earnings expectations. But the next day it fell 1.3%.","has_analysis":false},{"ticker":"TAP","name":"Molson Coors Beverage Company","sector":"Consumer Staples","signal_date":"2026-04-30","gap_up_pct":3.47,"selloff_pct":2.95,"outcome_1d":-4.7,"outcome_5d":null,"outcome_10d":null,"signal_strength":63,"status":"active","catalyst_type":"earnings_beat","catalyst_headline":"Molson Coors beats Q1 expectations as pricing offsets volume declines","gap_size":"Medium","outcome_label":"Kept Falling","summary":"On April 30, 2026, Molson Coors Beverage Company jumped 3.5% because it beat earnings expectations. But the next day it fell 4.7%.","has_analysis":false},{"ticker":"STX","name":"Seagate Technology","sector":"Information Technology","signal_date":"2026-04-30","gap_up_pct":1.85,"selloff_pct":1.03,"outcome_1d":9.63,"outcome_5d":null,"outcome_10d":null,"signal_strength":49,"status":"active","catalyst_type":"earnings_beat","catalyst_headline":"Red-Hot AI Stock Western Digital Slides Late Despite Earnings Beat","gap_size":"Small","outcome_label":"Bounced","summary":"On April 30, 2026, Seagate Technology jumped 1.9% because it beat earnings expectations. The next day it bounced back another 9.6%!","has_analysis":false},{"ticker":"SNDK","name":"Sandisk","sector":"Information Technology","signal_date":"2026-04-30","gap_up_pct":4.53,"selloff_pct":1.66,"outcome_1d":14.53,"outcome_5d":null,"outcome_10d":null,"signal_strength":48,"status":"active","catalyst_type":"positive_news","catalyst_headline":"Dow Jones Futures Rise As Apple Jumps On Earnings, Sandisk Skids; Stock Market At High","gap_size":"Medium","outcome_label":"Bounced","summary":"On April 30, 2026, Sandisk jumped 4.5% because of positive news. The next day it bounced back another 14.5%!","has_analysis":false},{"ticker":"RCL","name":"Royal Caribbean Group","sector":"Consumer Discretionary","signal_date":"2026-04-30","gap_up_pct":5.51,"selloff_pct":6.27,"outcome_1d":-1.62,"outcome_5d":null,"outcome_10d":null,"signal_strength":75,"status":"active","catalyst_type":"earnings_beat","catalyst_headline":"Royal Caribbean Q1 Earnings & Revenues Beat Estimates, Stock Up","gap_size":"Big","outcome_label":"Kept Falling","summary":"On April 30, 2026, Royal Caribbean Group jumped 5.5% because it beat earnings expectations. But the next day it fell 1.6%.","has_analysis":false},{"ticker":"QCOM","name":"Qualcomm","sector":"Information Technology","signal_date":"2026-04-30","gap_up_pct":10.29,"selloff_pct":3.91,"outcome_1d":-6.24,"outcome_5d":null,"outcome_10d":null,"signal_strength":58,"status":"active","catalyst_type":"positive_news","catalyst_headline":"US Equity Indexes Jump as Tech Earnings, Q1 Economic Growth Help Trigger Broad-Based Rally","gap_size":"Huge","outcome_label":"Kept Falling","summary":"On April 30, 2026, Qualcomm jumped 10.3% because of positive news. But the next day it fell 6.2%.","has_analysis":false},{"ticker":"POOL","name":"Pool Corporation","sector":"Consumer Discretionary","signal_date":"2026-04-30","gap_up_pct":2.0,"selloff_pct":2.1,"outcome_1d":-4.73,"outcome_5d":null,"outcome_10d":null,"signal_strength":21,"status":"active","catalyst_type":null,"catalyst_headline":null,"gap_size":"Small","outcome_label":"Kept Falling","summary":"On April 30, 2026, Pool Corporation jumped 2.0% because of big news. But the next day it fell 4.7%.","has_analysis":false},{"ticker":"NCLH","name":"Norwegian Cruise Line Holdings","sector":"Consumer Discretionary","signal_date":"2026-04-30","gap_up_pct":2.03,"selloff_pct":2.21,"outcome_1d":-5.39,"outcome_5d":null,"outcome_10d":null,"signal_strength":29,"status":"active","catalyst_type":null,"catalyst_headline":null,"gap_size":"Small","outcome_label":"Kept Falling","summary":"On April 30, 2026, Norwegian Cruise Line Holdings jumped 2.0% because of big news. But the next day it fell 5.4%.","has_analysis":false},{"ticker":"MU","name":"Micron Technology","sector":"Information Technology","signal_date":"2026-04-30","gap_up_pct":2.18,"selloff_pct":3.42,"outcome_1d":11.46,"outcome_5d":null,"outcome_10d":null,"signal_strength":48,"status":"active","catalyst_type":"upgrade","catalyst_headline":"Seagate: The Most Overvalued Memory Stock Might Be The Best Pick (Upgrade)","gap_size":"Small","outcome_label":"Bounced","summary":"On April 30, 2026, Micron Technology jumped 2.2% because an analyst upgraded the stock. The next day it bounced back another 11.5%!","has_analysis":false},{"ticker":"MO","name":"Altria","sector":"Consumer Staples","signal_date":"2026-04-30","gap_up_pct":8.28,"selloff_pct":1.62,"outcome_1d":1.05,"outcome_5d":null,"outcome_10d":null,"signal_strength":62,"status":"active","catalyst_type":"earnings_beat","catalyst_headline":"Altria Q1 Earnings Beat Estimates, Revenues Rise 3.2% Y/Y","gap_size":"Big","outcome_label":"Bounced","summary":"On April 30, 2026, Altria jumped 8.3% because it beat earnings expectations. The next day it bounced back another 1.1%!","has_analysis":false},{"ticker":"LUV","name":"Southwest Airlines","sector":"Industrials","signal_date":"2026-04-30","gap_up_pct":1.56,"selloff_pct":1.53,"outcome_1d":1.13,"outcome_5d":null,"outcome_10d":null,"signal_strength":20,"status":"active","catalyst_type":null,"catalyst_headline":null,"gap_size":"Small","outcome_label":"Bounced","summary":"On April 30, 2026, Southwest Airlines jumped 1.6% because of big news. The next day it bounced back another 1.1%!","has_analysis":false},{"ticker":"LLY","name":"Lilly (Eli)","sector":"Health Care","signal_date":"2026-04-30","gap_up_pct":5.59,"selloff_pct":1.15,"outcome_1d":3.57,"outcome_5d":null,"outcome_10d":null,"signal_strength":46,"status":"active","catalyst_type":"positive_news","catalyst_headline":"Wall Street ends higher, S&P 500, Nasdaq notch strong monthly gains","gap_size":"Big","outcome_label":"Bounced","summary":"On April 30, 2026, Lilly (Eli) jumped 5.6% because of positive news. The next day it bounced back another 3.6%!","has_analysis":false},{"ticker":"LITE","name":"Lumentum","sector":"Information Technology","signal_date":"2026-04-30","gap_up_pct":4.29,"selloff_pct":2.07,"outcome_1d":8.19,"outcome_5d":null,"outcome_10d":null,"signal_strength":57,"status":"active","catalyst_type":"earnings_beat","catalyst_headline":"Viav Solutions (VIAV) Beats Q3 Earnings and Revenue Estimates","gap_size":"Medium","outcome_label":"Bounced","summary":"On April 30, 2026, Lumentum jumped 4.3% because it beat earnings expectations. The next day it bounced back another 8.2%!","has_analysis":false},{"ticker":"LII","name":"Lennox International","sector":"Industrials","signal_date":"2026-04-30","gap_up_pct":2.78,"selloff_pct":2.95,"outcome_1d":-3.74,"outcome_5d":null,"outcome_10d":null,"signal_strength":49,"status":"active","catalyst_type":"upgrade","catalyst_headline":"RBC Capital Maintains Sector Perform on Lennox International, Raises Price Target to $579","gap_size":"Small","outcome_label":"Kept Falling","summary":"On April 30, 2026, Lennox International jumped 2.8% because an analyst upgraded the stock. But the next day it fell 3.7%.","has_analysis":false}]}