{"total":575,"page":3,"per_page":50,"total_pages":12,"filters":{"gap_sizes":["Small","Medium","Big","Huge"],"outcomes":["Bounced","Faded","Kept Falling"],"sectors":["","Communication Services","Consumer Discretionary","Consumer Staples","Energy","Financials","Health Care","Industrials","Information Technology","Materials","Real Estate","Utilities"]},"events":[{"ticker":"EME","name":"Emcor","sector":"Industrials","signal_date":"2026-05-05","gap_up_pct":2.8,"selloff_pct":1.23,"outcome_1d":null,"outcome_5d":null,"outcome_10d":null,"signal_strength":48,"status":"active","catalyst_type":"earnings_beat","catalyst_headline":"Sterling Q1 Earnings & Revenues Beat Estimates, Rise Y/Y","gap_size":"Small","outcome_label":"Pending","summary":"On May 05, 2026, Emcor jumped 2.8% because it beat earnings expectations.","has_analysis":false},{"ticker":"DD","name":"DuPont","sector":"Materials","signal_date":"2026-05-05","gap_up_pct":1.61,"selloff_pct":1.83,"outcome_1d":null,"outcome_5d":null,"outcome_10d":null,"signal_strength":46,"status":"active","catalyst_type":"earnings_beat","catalyst_headline":"DD Q1 Earnings Beat on Productivity Gains, Sales Rise Y/Y","gap_size":"Small","outcome_label":"Pending","summary":"On May 05, 2026, DuPont jumped 1.6% because it beat earnings expectations.","has_analysis":false},{"ticker":"COIN","name":"Coinbase","sector":"Financials","signal_date":"2026-05-05","gap_up_pct":2.9,"selloff_pct":5.33,"outcome_1d":null,"outcome_5d":null,"outcome_10d":null,"signal_strength":50,"status":"active","catalyst_type":"positive_news","catalyst_headline":"Coinbase Slashes Workforce For AI Pivot; Bullish Rallies On $4.2 Billion Buyout","gap_size":"Small","outcome_label":"Pending","summary":"On May 05, 2026, Coinbase jumped 2.9% because of positive news.","has_analysis":false},{"ticker":"CMI","name":"Cummins","sector":"Industrials","signal_date":"2026-05-05","gap_up_pct":4.08,"selloff_pct":2.1,"outcome_1d":null,"outcome_5d":null,"outcome_10d":null,"signal_strength":60,"status":"active","catalyst_type":"earnings_beat","catalyst_headline":"Cummins' Q1 Earnings Beat on Strong Power Systems Results","gap_size":"Medium","outcome_label":"Pending","summary":"On May 05, 2026, Cummins jumped 4.1% because it beat earnings expectations.","has_analysis":false},{"ticker":"CIEN","name":"Ciena","sector":"Information Technology","signal_date":"2026-05-05","gap_up_pct":2.81,"selloff_pct":3.07,"outcome_1d":null,"outcome_5d":null,"outcome_10d":null,"signal_strength":54,"status":"active","catalyst_type":"earnings_beat","catalyst_headline":"Why Ciena (CIEN) is Poised to Beat Earnings Estimates Again","gap_size":"Small","outcome_label":"Pending","summary":"On May 05, 2026, Ciena jumped 2.8% because it beat earnings expectations.","has_analysis":false},{"ticker":"BLDR","name":"Builders FirstSource","sector":"Industrials","signal_date":"2026-05-05","gap_up_pct":1.67,"selloff_pct":1.84,"outcome_1d":null,"outcome_5d":null,"outcome_10d":null,"signal_strength":22,"status":"active","catalyst_type":null,"catalyst_headline":null,"gap_size":"Small","outcome_label":"Pending","summary":"On May 05, 2026, Builders FirstSource jumped 1.7% because of big news.","has_analysis":false},{"ticker":"ARM","name":"Arm Holdings","sector":"","signal_date":"2026-05-05","gap_up_pct":3.36,"selloff_pct":2.59,"outcome_1d":null,"outcome_5d":null,"outcome_10d":null,"signal_strength":42,"status":"active","catalyst_type":null,"catalyst_headline":null,"gap_size":"Medium","outcome_label":"Pending","summary":"On May 05, 2026, Arm Holdings jumped 3.4% because of big news.","has_analysis":false},{"ticker":"APH","name":"Amphenol","sector":"Information Technology","signal_date":"2026-05-05","gap_up_pct":1.72,"selloff_pct":5.16,"outcome_1d":null,"outcome_5d":null,"outcome_10d":null,"signal_strength":62,"status":"active","catalyst_type":"earnings_beat","catalyst_headline":"Apple, Amazon, TSMC Top List Of Earnings Triple Plays As Beat-And-Raise Stocks Surge","gap_size":"Small","outcome_label":"Pending","summary":"On May 05, 2026, Amphenol jumped 1.7% because it beat earnings expectations.","has_analysis":false},{"ticker":"ANET","name":"Arista Networks","sector":"Information Technology","signal_date":"2026-05-05","gap_up_pct":2.54,"selloff_pct":3.95,"outcome_1d":null,"outcome_5d":null,"outcome_10d":null,"signal_strength":82,"status":"active","catalyst_type":"earnings_beat","catalyst_headline":"Arista Networks Beats Expectations, Offers Upside Guidance. The Stock Is Down.","gap_size":"Small","outcome_label":"Pending","summary":"On May 05, 2026, Arista Networks jumped 2.5% because it beat earnings expectations.","has_analysis":false},{"ticker":"AMD","name":"Advanced Micro Devices","sector":"Information Technology","signal_date":"2026-05-05","gap_up_pct":2.92,"selloff_pct":1.2,"outcome_1d":null,"outcome_5d":null,"outcome_10d":null,"signal_strength":58,"status":"active","catalyst_type":"earnings_beat","catalyst_headline":"AMD Stock Soars on Strong Earnings and Growing Confidence About AI","gap_size":"Small","outcome_label":"Pending","summary":"On May 05, 2026, Advanced Micro Devices jumped 2.9% because it beat earnings expectations.","has_analysis":false},{"ticker":"ALB","name":"Albemarle Corporation","sector":"Materials","signal_date":"2026-05-05","gap_up_pct":2.26,"selloff_pct":1.29,"outcome_1d":null,"outcome_5d":null,"outcome_10d":null,"signal_strength":18,"status":"active","catalyst_type":null,"catalyst_headline":null,"gap_size":"Small","outcome_label":"Pending","summary":"On May 05, 2026, Albemarle Corporation jumped 2.3% because of big news.","has_analysis":false},{"ticker":"AEP","name":"American Electric Power","sector":"Utilities","signal_date":"2026-05-05","gap_up_pct":2.84,"selloff_pct":1.72,"outcome_1d":null,"outcome_5d":null,"outcome_10d":null,"signal_strength":55,"status":"active","catalyst_type":"earnings_beat","catalyst_headline":"American Electric's Q1 Earnings Beat Estimates, Revenues Increase Y/Y","gap_size":"Small","outcome_label":"Pending","summary":"On May 05, 2026, American Electric Power jumped 2.8% because it beat earnings expectations.","has_analysis":false},{"ticker":"A","name":"Agilent Technologies","sector":"Health Care","signal_date":"2026-05-05","gap_up_pct":2.86,"selloff_pct":1.49,"outcome_1d":null,"outcome_5d":null,"outcome_10d":null,"signal_strength":22,"status":"active","catalyst_type":null,"catalyst_headline":null,"gap_size":"Small","outcome_label":"Pending","summary":"On May 05, 2026, Agilent Technologies jumped 2.9% because of big news.","has_analysis":false},{"ticker":"STX","name":"Seagate Technology","sector":"Information Technology","signal_date":"2026-05-04","gap_up_pct":2.1,"selloff_pct":1.4,"outcome_1d":6.48,"outcome_5d":null,"outcome_10d":null,"signal_strength":23,"status":"active","catalyst_type":null,"catalyst_headline":null,"gap_size":"Small","outcome_label":"Bounced","summary":"On May 04, 2026, Seagate Technology jumped 2.1% because of big news. The next day it bounced back another 6.5%!","has_analysis":false},{"ticker":"SNDK","name":"Sandisk","sector":"Information Technology","signal_date":"2026-05-04","gap_up_pct":2.96,"selloff_pct":1.51,"outcome_1d":12.27,"outcome_5d":null,"outcome_10d":null,"signal_strength":36,"status":"active","catalyst_type":"positive_news","catalyst_headline":"Is It Too Late To Consider Sandisk (SNDK) After A 331.3% Year To Date Surge?","gap_size":"Small","outcome_label":"Bounced","summary":"On May 04, 2026, Sandisk jumped 3.0% because of positive news. The next day it bounced back another 12.3%!","has_analysis":false},{"ticker":"PLTR","name":"Palantir Technologies","sector":"Information Technology","signal_date":"2026-05-04","gap_up_pct":2.55,"selloff_pct":2.41,"outcome_1d":-8.38,"outcome_5d":null,"outcome_10d":null,"signal_strength":60,"status":"active","catalyst_type":"earnings_beat","catalyst_headline":"Palantir Just Delivered Another Quarterly Beat -- And the Company's 2026 Outlook Just Got Even Stronger","gap_size":"Small","outcome_label":"Kept Falling","summary":"On May 04, 2026, Palantir Technologies jumped 2.5% because it beat earnings expectations. But the next day it fell 8.4%.","has_analysis":false},{"ticker":"ORCL","name":"Oracle Corporation","sector":"Information Technology","signal_date":"2026-05-04","gap_up_pct":2.44,"selloff_pct":1.75,"outcome_1d":7.62,"outcome_5d":null,"outcome_10d":null,"signal_strength":31,"status":"active","catalyst_type":"positive_news","catalyst_headline":"IBM And Oracle Expand Partnership To Help Organizations Modernize With AI And Cloud","gap_size":"Small","outcome_label":"Bounced","summary":"On May 04, 2026, Oracle Corporation jumped 2.4% because of positive news. The next day it bounced back another 7.6%!","has_analysis":false},{"ticker":"ON","name":"ON Semiconductor","sector":"Information Technology","signal_date":"2026-05-04","gap_up_pct":1.81,"selloff_pct":2.82,"outcome_1d":3.66,"outcome_5d":null,"outcome_10d":null,"signal_strength":61,"status":"active","catalyst_type":"earnings_beat","catalyst_headline":"ON Semiconductor Corp. (ON) Beats Q1 Earnings and Revenue Estimates","gap_size":"Small","outcome_label":"Bounced","summary":"On May 04, 2026, ON Semiconductor jumped 1.8% because it beat earnings expectations. The next day it bounced back another 3.7%!","has_analysis":false},{"ticker":"MU","name":"Micron Technology","sector":"Information Technology","signal_date":"2026-05-04","gap_up_pct":3.39,"selloff_pct":2.76,"outcome_1d":15.64,"outcome_5d":null,"outcome_10d":null,"signal_strength":39,"status":"active","catalyst_type":null,"catalyst_headline":null,"gap_size":"Medium","outcome_label":"Bounced","summary":"On May 04, 2026, Micron Technology jumped 3.4% because of big news. The next day it bounced back another 15.6%!","has_analysis":false},{"ticker":"MSTR","name":"MicroStrategy","sector":"","signal_date":"2026-05-04","gap_up_pct":2.11,"selloff_pct":1.19,"outcome_1d":1.64,"outcome_5d":null,"outcome_10d":null,"signal_strength":26,"status":"active","catalyst_type":"positive_news","catalyst_headline":"Bitcoin, Ethereum Surge, While XRP, Dogecoin Stall Amid Iran War Flareup: Analyst Says BTC Closing Above This Level Could Open Path to $92,000","gap_size":"Small","outcome_label":"Bounced","summary":"On May 04, 2026, MicroStrategy jumped 2.1% because of positive news. The next day it bounced back another 1.6%!","has_analysis":false},{"ticker":"MCHP","name":"Microchip Technology","sector":"Information Technology","signal_date":"2026-05-04","gap_up_pct":2.42,"selloff_pct":0.96,"outcome_1d":8.0,"outcome_5d":null,"outcome_10d":null,"signal_strength":19,"status":"active","catalyst_type":null,"catalyst_headline":null,"gap_size":"Small","outcome_label":"Bounced","summary":"On May 04, 2026, Microchip Technology jumped 2.4% because of big news. The next day it bounced back another 8.0%!","has_analysis":false},{"ticker":"LITE","name":"Lumentum","sector":"Information Technology","signal_date":"2026-05-04","gap_up_pct":3.89,"selloff_pct":2.86,"outcome_1d":-3.27,"outcome_5d":null,"outcome_10d":null,"signal_strength":47,"status":"active","catalyst_type":"positive_news","catalyst_headline":"Jim Cramer Shows Bullish Sentiment as He Says He Would “Buy Lumentum”","gap_size":"Medium","outcome_label":"Kept Falling","summary":"On May 04, 2026, Lumentum jumped 3.9% because of positive news. But the next day it fell 3.3%.","has_analysis":false},{"ticker":"IP","name":"International Paper","sector":"Materials","signal_date":"2026-05-04","gap_up_pct":2.08,"selloff_pct":5.74,"outcome_1d":7.44,"outcome_5d":null,"outcome_10d":null,"signal_strength":55,"status":"active","catalyst_type":"upgrade","catalyst_headline":"Wells Fargo Upgrades International Paper (IP)","gap_size":"Small","outcome_label":"Bounced","summary":"On May 04, 2026, International Paper jumped 2.1% because an analyst upgraded the stock. The next day it bounced back another 7.4%!","has_analysis":false},{"ticker":"GLW","name":"Corning Inc.","sector":"Information Technology","signal_date":"2026-05-04","gap_up_pct":3.1,"selloff_pct":2.27,"outcome_1d":13.51,"outcome_5d":null,"outcome_10d":null,"signal_strength":29,"status":"active","catalyst_type":null,"catalyst_headline":null,"gap_size":"Medium","outcome_label":"Bounced","summary":"On May 04, 2026, Corning Inc. jumped 3.1% because of big news. The next day it bounced back another 13.5%!","has_analysis":false},{"ticker":"EBAY","name":"eBay Inc.","sector":"Consumer Discretionary","signal_date":"2026-05-04","gap_up_pct":4.87,"selloff_pct":1.84,"outcome_1d":-1.08,"outcome_5d":null,"outcome_10d":null,"signal_strength":45,"status":"active","catalyst_type":"positive_news","catalyst_headline":"GameStop shares fall 10% after CEO skirts questions over eBay acquisition details","gap_size":"Medium","outcome_label":"Kept Falling","summary":"On May 04, 2026, eBay Inc. jumped 4.9% because of positive news. But the next day it fell 1.1%.","has_analysis":false},{"ticker":"CSGP","name":"CoStar Group","sector":"Real Estate","signal_date":"2026-05-04","gap_up_pct":3.02,"selloff_pct":1.34,"outcome_1d":-3.7,"outcome_5d":null,"outcome_10d":null,"signal_strength":47,"status":"active","catalyst_type":"earnings_beat","catalyst_headline":"CoStar CEO boosts stake after activist exit and earnings beat","gap_size":"Medium","outcome_label":"Kept Falling","summary":"On May 04, 2026, CoStar Group jumped 3.0% because it beat earnings expectations. But the next day it fell 3.7%.","has_analysis":false},{"ticker":"COIN","name":"Coinbase","sector":"Financials","signal_date":"2026-05-04","gap_up_pct":4.27,"selloff_pct":1.8,"outcome_1d":-2.48,"outcome_5d":null,"outcome_10d":null,"signal_strength":41,"status":"active","catalyst_type":"positive_news","catalyst_headline":"Bitcoin, Ethereum Surge, While XRP, Dogecoin Stall Amid Iran War Flareup: Analyst Says BTC Closing Above This Level Could Open Path to $92,000","gap_size":"Medium","outcome_label":"Kept Falling","summary":"On May 04, 2026, Coinbase jumped 4.3% because of positive news. But the next day it fell 2.5%.","has_analysis":false},{"ticker":"COHR","name":"Coherent Corp.","sector":"Information Technology","signal_date":"2026-05-04","gap_up_pct":4.69,"selloff_pct":5.29,"outcome_1d":4.48,"outcome_5d":null,"outcome_10d":null,"signal_strength":48,"status":"active","catalyst_type":null,"catalyst_headline":null,"gap_size":"Medium","outcome_label":"Bounced","summary":"On May 04, 2026, Coherent Corp. jumped 4.7% because of big news. The next day it bounced back another 4.5%!","has_analysis":false},{"ticker":"APP","name":"AppLovin","sector":"Information Technology","signal_date":"2026-05-04","gap_up_pct":1.51,"selloff_pct":1.77,"outcome_1d":-1.3,"outcome_5d":null,"outcome_10d":null,"signal_strength":16,"status":"active","catalyst_type":null,"catalyst_headline":null,"gap_size":"Small","outcome_label":"Kept Falling","summary":"On May 04, 2026, AppLovin jumped 1.5% because of big news. But the next day it fell 1.3%.","has_analysis":false},{"ticker":"ANET","name":"Arista Networks","sector":"Information Technology","signal_date":"2026-05-04","gap_up_pct":1.73,"selloff_pct":3.62,"outcome_1d":-14.81,"outcome_5d":null,"outcome_10d":null,"signal_strength":41,"status":"active","catalyst_type":null,"catalyst_headline":null,"gap_size":"Small","outcome_label":"Kept Falling","summary":"On May 04, 2026, Arista Networks jumped 1.7% because of big news. But the next day it fell 14.8%.","has_analysis":false},{"ticker":"WY","name":"Weyerhaeuser","sector":"Real Estate","signal_date":"2026-05-01","gap_up_pct":1.88,"selloff_pct":4.23,"outcome_1d":-1.21,"outcome_5d":null,"outcome_10d":null,"signal_strength":61,"status":"active","catalyst_type":"earnings_beat","catalyst_headline":"Weyerhaeuser Q1 Earnings Beat Estimates on Land Solutions Strength","gap_size":"Small","outcome_label":"Kept Falling","summary":"On May 01, 2026, Weyerhaeuser jumped 1.9% because it beat earnings expectations. But the next day it fell 1.2%.","has_analysis":false},{"ticker":"WTW","name":"Willis Towers Watson","sector":"Financials","signal_date":"2026-05-01","gap_up_pct":2.65,"selloff_pct":3.82,"outcome_1d":1.22,"outcome_5d":null,"outcome_10d":null,"signal_strength":59,"status":"active","catalyst_type":"upgrade","catalyst_headline":"Piper Sandler Maintains Overweight on Willis Towers Watson, Lowers Price Target to $283","gap_size":"Small","outcome_label":"Bounced","summary":"On May 01, 2026, Willis Towers Watson jumped 2.6% because an analyst upgraded the stock. The next day it bounced back another 1.2%!","has_analysis":false},{"ticker":"WDAY","name":"Workday, Inc.","sector":"Information Technology","signal_date":"2026-05-01","gap_up_pct":5.47,"selloff_pct":3.08,"outcome_1d":1.51,"outcome_5d":null,"outcome_10d":null,"signal_strength":40,"status":"active","catalyst_type":null,"catalyst_headline":null,"gap_size":"Big","outcome_label":"Bounced","summary":"On May 01, 2026, Workday, Inc. jumped 5.5% because of big news. The next day it bounced back another 1.5%!","has_analysis":false},{"ticker":"VRSK","name":"Verisk Analytics","sector":"Industrials","signal_date":"2026-05-01","gap_up_pct":1.56,"selloff_pct":4.13,"outcome_1d":-0.36,"outcome_5d":null,"outcome_10d":null,"signal_strength":53,"status":"active","catalyst_type":"earnings_beat","catalyst_headline":"A Look At Verisk Analytics (VRSK) Valuation After Earnings Beat Buybacks And Dividend Increase","gap_size":"Small","outcome_label":"Faded","summary":"On May 01, 2026, Verisk Analytics jumped 1.6% because it beat earnings expectations. The next day it stayed about flat.","has_analysis":false},{"ticker":"URI","name":"United Rentals","sector":"Industrials","signal_date":"2026-05-01","gap_up_pct":1.5,"selloff_pct":2.57,"outcome_1d":-1.61,"outcome_5d":null,"outcome_10d":null,"signal_strength":45,"status":"active","catalyst_type":"earnings_beat","catalyst_headline":"Martin Marietta Q1 Earnings Miss Estimates, Revenues Beat, Stock Up","gap_size":"Small","outcome_label":"Kept Falling","summary":"On May 01, 2026, United Rentals jumped 1.5% because it beat earnings expectations. But the next day it fell 1.6%.","has_analysis":false},{"ticker":"TYL","name":"Tyler Technologies","sector":"Information Technology","signal_date":"2026-05-01","gap_up_pct":3.04,"selloff_pct":6.42,"outcome_1d":-2.29,"outcome_5d":null,"outcome_10d":null,"signal_strength":67,"status":"active","catalyst_type":"earnings_beat","catalyst_headline":"Tyler Technologies Q1 Earnings Beat Estimates, Revenues Rise Y/Y","gap_size":"Medium","outcome_label":"Kept Falling","summary":"On May 01, 2026, Tyler Technologies jumped 3.0% because it beat earnings expectations. But the next day it fell 2.3%.","has_analysis":false},{"ticker":"TTD","name":"Trade Desk (The)","sector":"Communication Services","signal_date":"2026-05-01","gap_up_pct":3.05,"selloff_pct":2.53,"outcome_1d":1.53,"outcome_5d":null,"outcome_10d":null,"signal_strength":38,"status":"active","catalyst_type":"positive_news","catalyst_headline":"The Trade Desk (TTD) Stock Drops Despite Market Gains: Important Facts to Note","gap_size":"Medium","outcome_label":"Bounced","summary":"On May 01, 2026, Trade Desk (The) jumped 3.0% because of positive news. The next day it bounced back another 1.5%!","has_analysis":false},{"ticker":"TRMB","name":"Trimble Inc.","sector":"Information Technology","signal_date":"2026-05-01","gap_up_pct":1.86,"selloff_pct":0.7,"outcome_1d":-0.07,"outcome_5d":null,"outcome_10d":null,"signal_strength":14,"status":"active","catalyst_type":null,"catalyst_headline":null,"gap_size":"Small","outcome_label":"Faded","summary":"On May 01, 2026, Trimble Inc. jumped 1.9% because of big news. The next day it stayed about flat.","has_analysis":false},{"ticker":"TKO","name":"TKO Group Holdings","sector":"Communication Services","signal_date":"2026-05-01","gap_up_pct":1.52,"selloff_pct":2.14,"outcome_1d":0.53,"outcome_5d":null,"outcome_10d":null,"signal_strength":38,"status":"active","catalyst_type":"upgrade","catalyst_headline":"Morgan Stanley Upgrades TKO Group Holdings (TKO)","gap_size":"Small","outcome_label":"Faded","summary":"On May 01, 2026, TKO Group Holdings jumped 1.5% because an analyst upgraded the stock. The next day it stayed about flat.","has_analysis":false},{"ticker":"TEAM","name":"Atlassian","sector":"","signal_date":"2026-05-01","gap_up_pct":20.89,"selloff_pct":1.5,"outcome_1d":3.9,"outcome_5d":null,"outcome_10d":null,"signal_strength":67,"status":"active","catalyst_type":"earnings_beat","catalyst_headline":"Nasdaq Jumps Over 1%; Exxon Mobil Posts Upbeat Revenue","gap_size":"Huge","outcome_label":"Bounced","summary":"On May 01, 2026, Atlassian jumped 20.9% because it beat earnings expectations. The next day it bounced back another 3.9%!","has_analysis":false},{"ticker":"SNPS","name":"Synopsys","sector":"Information Technology","signal_date":"2026-05-01","gap_up_pct":1.77,"selloff_pct":1.79,"outcome_1d":2.76,"outcome_5d":null,"outcome_10d":null,"signal_strength":18,"status":"active","catalyst_type":null,"catalyst_headline":null,"gap_size":"Small","outcome_label":"Bounced","summary":"On May 01, 2026, Synopsys jumped 1.8% because of big news. The next day it bounced back another 2.8%!","has_analysis":false},{"ticker":"PTC","name":"PTC Inc.","sector":"Information Technology","signal_date":"2026-05-01","gap_up_pct":2.69,"selloff_pct":4.32,"outcome_1d":0.75,"outcome_5d":null,"outcome_10d":null,"signal_strength":36,"status":"active","catalyst_type":null,"catalyst_headline":null,"gap_size":"Small","outcome_label":"Faded","summary":"On May 01, 2026, PTC Inc. jumped 2.7% because of big news. The next day it stayed about flat.","has_analysis":false},{"ticker":"PSKY","name":"Paramount Skydance Corporation","sector":"Communication Services","signal_date":"2026-05-01","gap_up_pct":5.27,"selloff_pct":1.42,"outcome_1d":-3.88,"outcome_5d":null,"outcome_10d":null,"signal_strength":53,"status":"active","catalyst_type":"upgrade","catalyst_headline":"Paramount Skydance Stock Pops After Double Upgrade. Why Morgan Stanley Analyst Says It’s the ‘Riskiest’ Call.","gap_size":"Big","outcome_label":"Kept Falling","summary":"On May 01, 2026, Paramount Skydance Corporation jumped 5.3% because an analyst upgraded the stock. But the next day it fell 3.9%.","has_analysis":false},{"ticker":"PLTR","name":"Palantir Technologies","sector":"Information Technology","signal_date":"2026-05-01","gap_up_pct":2.98,"selloff_pct":1.62,"outcome_1d":-5.66,"outcome_5d":null,"outcome_10d":null,"signal_strength":54,"status":"active","catalyst_type":"earnings_beat","catalyst_headline":"Nasdaq Tops 25,000. Tech Is Back In Control.","gap_size":"Small","outcome_label":"Kept Falling","summary":"On May 01, 2026, Palantir Technologies jumped 3.0% because it beat earnings expectations. But the next day it fell 5.7%.","has_analysis":false},{"ticker":"ORCL","name":"Oracle Corporation","sector":"Information Technology","signal_date":"2026-05-01","gap_up_pct":3.12,"selloff_pct":1.42,"outcome_1d":7.87,"outcome_5d":null,"outcome_10d":null,"signal_strength":33,"status":"active","catalyst_type":"positive_news","catalyst_headline":"Bloom Energy (BE) Is Up 25.7% After Securing Oracle AI Data Center Power Deal - Has The Bull Case Changed?","gap_size":"Medium","outcome_label":"Bounced","summary":"On May 01, 2026, Oracle Corporation jumped 3.1% because of positive news. The next day it bounced back another 7.9%!","has_analysis":false},{"ticker":"NOW","name":"ServiceNow","sector":"Information Technology","signal_date":"2026-05-01","gap_up_pct":2.97,"selloff_pct":1.56,"outcome_1d":0.93,"outcome_5d":null,"outcome_10d":null,"signal_strength":23,"status":"active","catalyst_type":null,"catalyst_headline":null,"gap_size":"Small","outcome_label":"Faded","summary":"On May 01, 2026, ServiceNow jumped 3.0% because of big news. The next day it stayed about flat.","has_analysis":false},{"ticker":"MSTR","name":"MicroStrategy","sector":"","signal_date":"2026-05-01","gap_up_pct":3.23,"selloff_pct":1.78,"outcome_1d":5.49,"outcome_5d":null,"outcome_10d":null,"signal_strength":50,"status":"active","catalyst_type":"earnings_beat","catalyst_headline":"Riot Platforms, Inc. (RIOT) Reports Q1 Loss, Tops Revenue Estimates","gap_size":"Medium","outcome_label":"Bounced","summary":"On May 01, 2026, MicroStrategy jumped 3.2% because it beat earnings expectations. The next day it bounced back another 5.5%!","has_analysis":false},{"ticker":"MRNA","name":"Moderna","sector":"Health Care","signal_date":"2026-05-01","gap_up_pct":1.51,"selloff_pct":6.26,"outcome_1d":2.95,"outcome_5d":null,"outcome_10d":null,"signal_strength":62,"status":"active","catalyst_type":"earnings_beat","catalyst_headline":"Moderna reports mixed Q1 results as revenue beats estimates but litigation charge weighs on earnings","gap_size":"Small","outcome_label":"Bounced","summary":"On May 01, 2026, Moderna jumped 1.5% because it beat earnings expectations. The next day it bounced back another 3.0%!","has_analysis":false},{"ticker":"MRK","name":"Merck & Co.","sector":"Health Care","signal_date":"2026-05-01","gap_up_pct":2.89,"selloff_pct":2.08,"outcome_1d":0.88,"outcome_5d":null,"outcome_10d":null,"signal_strength":35,"status":"active","catalyst_type":"positive_news","catalyst_headline":"Moderna Reports Q1 Loss, Stock Jumps on Strong International Sales","gap_size":"Small","outcome_label":"Faded","summary":"On May 01, 2026, Merck & Co. jumped 2.9% because of positive news. The next day it stayed about flat.","has_analysis":false},{"ticker":"LLY","name":"Lilly (Eli)","sector":"Health Care","signal_date":"2026-05-01","gap_up_pct":1.54,"selloff_pct":2.15,"outcome_1d":2.65,"outcome_5d":null,"outcome_10d":null,"signal_strength":31,"status":"active","catalyst_type":"positive_news","catalyst_headline":"Eli Lilly's Oral Weight-Loss Drug Gains Early Momentum as Prescriptions Surge, BofA Says","gap_size":"Small","outcome_label":"Bounced","summary":"On May 01, 2026, Lilly (Eli) jumped 1.5% because of positive news. The next day it bounced back another 2.6%!","has_analysis":false}]}